﻿Név,Dátum,Utolsó ár,Forgalom (db),Forgalom (HUF érték),Forgalom (EUR érték),Kötések száma,Nyitó ár,Minimum ár,Maximum ár,Deviza,Átlag ár,Kapitalizáció
AGRIMPEX,1993.03.17.,1900.0,150.0,285000.0,,1,1900.0,1900.0,1900.0,HUF,1900.0,
AGRIMPEX,1993.11.10.,2800.0,50.0,140000.0,,2,2800.0,2800.0,2800.0,HUF,2800.0,
AGRIMPEX,1993.11.11.,2800.0,50.0,140000.0,,2,2800.0,2800.0,2800.0,HUF,2800.0,
AGRIMPEX,1993.11.15.,3000.0,6150.0,1.8445E7,,3,2900.0,2900.0,3000.0,HUF,2999.186991869919,
AGRIMPEX,1993.11.17.,3000.0,10.0,30000.0,,1,3000.0,3000.0,3000.0,HUF,3000.0,
AGRIMPEX,1993.11.25.,3000.0,1000.0,3000000.0,,1,3000.0,3000.0,3000.0,HUF,3000.0,
AGRIMPEX,1993.11.26.,3010.0,510.0,1535000.0,,2,3000.0,3000.0,3010.0,HUF,3009.8039215686276,
AGRIMPEX,1993.12.01.,3000.0,2500.0,7500000.0,,1,3000.0,3000.0,3000.0,HUF,3000.0,
AGRIMPEX,1993.12.07.,2770.0,30.0,83100.0,,2,2770.0,2770.0,2770.0,HUF,2770.0,
AGRIMPEX,1993.12.13.,2500.0,30.0,75000.0,,1,2500.0,2500.0,2500.0,HUF,2500.0,
AGRIMPEX,1993.12.17.,3000.0,10.0,30000.0,,1,3000.0,3000.0,3000.0,HUF,3000.0,
BONBONH,1993.04.02.,1400.0,50.0,70000.0,,1,1400.0,1400.0,1400.0,HUF,1400.0,
BONBONH,1993.04.09.,1350.0,100.0,135000.0,,1,1350.0,1350.0,1350.0,HUF,1350.0,
BONBONH,1993.04.30.,1200.0,70.0,84000.0,,1,1200.0,1200.0,1200.0,HUF,1200.0,
BONBONH,1993.06.04.,1300.0,30.0,37000.0,,2,1200.0,1200.0,1300.0,HUF,1233.3333333333333,
BONBONH,1993.08.03.,1300.0,30.0,38000.0,,3,1250.0,1250.0,1300.0,HUF,1266.6666666666667,
BONBONH,1993.08.04.,1350.0,30.0,40500.0,,1,1350.0,1350.0,1350.0,HUF,1350.0,
BONBONH,1993.08.25.,1410.0,20.0,28200.0,,1,1410.0,1410.0,1410.0,HUF,1410.0,
BONBONH,1993.09.10.,1430.0,10.0,14300.0,,1,1430.0,1430.0,1430.0,HUF,1430.0,
BONBONH,1993.09.16.,1440.0,20.0,28800.0,,1,1440.0,1440.0,1440.0,HUF,1440.0,
BONBONH,1993.09.30.,1600.0,70.0,112000.0,,2,1600.0,1600.0,1600.0,HUF,1600.0,
BONBONH,1993.10.01.,1600.0,20.0,32000.0,,1,1600.0,1600.0,1600.0,HUF,1600.0,
BONBONH,1993.10.12.,2080.0,500.0,1040000.0,,3,2080.0,2080.0,2080.0,HUF,2080.0,
BONBONH,1993.10.13.,2300.0,1500.0,3325000.0,,9,2050.0,2050.0,2300.0,HUF,2216.6666666666665,
BONBONH,1993.10.14.,2200.0,690.0,1652000.0,,12,2400.0,2150.0,2450.0,HUF,2394.2028985507245,
BONBONH,1993.10.15.,2280.0,260.0,599000.0,,4,2385.0,2280.0,2385.0,HUF,2303.846153846154,
BONBONH,1993.10.19.,2100.0,60.0,127000.0,,2,2200.0,2100.0,2200.0,HUF,2116.6666666666665,
BONBONH,1993.10.20.,2100.0,250.0,525000.0,,6,2100.0,2100.0,2100.0,HUF,2100.0,
BONBONH,1993.10.21.,2100.0,20.0,42000.0,,1,2100.0,2100.0,2100.0,HUF,2100.0,
BONBONH,1993.10.22.,2060.0,50.0,103000.0,,1,2060.0,2060.0,2060.0,HUF,2060.0,
BONBONH,1993.10.25.,2050.0,110.0,225500.0,,3,2050.0,2050.0,2050.0,HUF,2050.0,
BONBONH,1993.10.26.,2050.0,160.0,326200.0,,5,2000.0,2000.0,2050.0,HUF,2038.75,
BONBONH,1993.10.28.,2050.0,100.0,205000.0,,3,2050.0,2050.0,2050.0,HUF,2050.0,
BONBONH,1993.10.29.,2045.0,20.0,40950.0,,2,2050.0,2045.0,2050.0,HUF,2047.5,
BONBONH,1993.11.01.,2050.0,200.0,410000.0,,7,2050.0,2050.0,2050.0,HUF,2050.0,
BONBONH,1993.11.03.,2060.0,90.0,185000.0,,2,2050.0,2050.0,2060.0,HUF,2055.5555555555557,
BONBONH,1993.11.05.,2100.0,110.0,231000.0,,3,2100.0,2100.0,2100.0,HUF,2100.0,
BONBONH,1993.11.08.,2100.0,20.0,42000.0,,2,2100.0,2100.0,2100.0,HUF,2100.0,
BONBONH,1993.11.11.,2100.0,230.0,483000.0,,4,2100.0,2100.0,2100.0,HUF,2100.0,
BONBONH,1993.11.12.,2100.0,20.0,42000.0,,1,2100.0,2100.0,2100.0,HUF,2100.0,
BONBONH,1993.11.15.,2050.0,40.0,82000.0,,1,2050.0,2050.0,2050.0,HUF,2050.0,
BONBONH,1993.11.18.,2050.0,100.0,205000.0,,1,2050.0,2050.0,2050.0,HUF,2050.0,
BONBONH,1993.11.19.,2050.0,50.0,102650.0,,2,2055.0,2050.0,2055.0,HUF,2053.0,
BONBONH,1993.11.22.,2080.0,20.0,41600.0,,1,2080.0,2080.0,2080.0,HUF,2080.0,
BONBONH,1993.11.23.,2055.0,220.0,451950.0,,6,2080.0,2050.0,2080.0,HUF,2054.318181818182,
BONBONH,1993.11.24.,2055.0,100.0,205500.0,,1,2055.0,2055.0,2055.0,HUF,2055.0,
BONBONH,1993.11.25.,2050.0,100.0,205000.0,,1,2050.0,2050.0,2050.0,HUF,2050.0,
BONBONH,1993.11.26.,2060.0,740.0,1524400.0,,4,2060.0,2060.0,2060.0,HUF,2060.0,
BONBONH,1993.11.29.,2120.0,1220.0,2558900.0,,12,2090.0,2075.0,2150.0,HUF,2097.4590163934427,
BONBONH,1993.11.30.,2100.0,220.0,462000.0,,1,2100.0,2100.0,2100.0,HUF,2100.0,
BONBONH,1993.12.01.,2130.0,10.0,21300.0,,1,2130.0,2130.0,2130.0,HUF,2130.0,
BONBONH,1993.12.03.,2140.0,290.0,622900.0,,4,2150.0,2120.0,2150.0,HUF,2147.9310344827586,
BONBONH,1993.12.06.,2170.0,60.0,130200.0,,1,2170.0,2170.0,2170.0,HUF,2170.0,
BONBONH,1993.12.07.,2170.0,530.0,1149700.0,,3,2150.0,2150.0,2170.0,HUF,2169.245283018868,
BONBONH,1993.12.09.,2150.0,20.0,43000.0,,1,2150.0,2150.0,2150.0,HUF,2150.0,
BONBONH,1993.12.10.,2170.0,30.0,65100.0,,1,2170.0,2170.0,2170.0,HUF,2170.0,
BONBONH,1993.12.13.,2150.0,10.0,21500.0,,1,2150.0,2150.0,2150.0,HUF,2150.0,
BONBONH,1993.12.15.,2160.0,50.0,107800.0,,2,2150.0,2150.0,2160.0,HUF,2156.0,
BONBONH,1993.12.21.,2120.0,20.0,42400.0,,2,2120.0,2120.0,2120.0,HUF,2120.0,
BONBONH,1993.12.30.,2200.0,60.0,129500.0,,3,2150.0,2150.0,2200.0,HUF,2158.3333333333335,
BONBONH,1993.12.31.,2200.0,420.0,925000.0,,12,2200.0,2200.0,2210.0,HUF,2202.3809523809523,
DANUBIUS,1993.01.13.,990.0,100.0,99000.0,,1,990.0,990.0,990.0,HUF,990.0,
DANUBIUS,1993.01.15.,990.0,100.0,99000.0,,1,990.0,990.0,990.0,HUF,990.0,
DANUBIUS,1993.01.18.,980.0,300.0,294000.0,,1,980.0,980.0,980.0,HUF,980.0,
DANUBIUS,1993.01.19.,990.0,30.0,29700.0,,1,990.0,990.0,990.0,HUF,990.0,
DANUBIUS,1993.01.20.,990.0,100.0,99000.0,,1,990.0,990.0,990.0,HUF,990.0,
DANUBIUS,1993.01.22.,980.0,300.0,294000.0,,1,980.0,980.0,980.0,HUF,980.0,
DANUBIUS,1993.01.25.,980.0,200.0,196000.0,,1,980.0,980.0,980.0,HUF,980.0,
DANUBIUS,1993.01.26.,980.0,50.0,49000.0,,1,980.0,980.0,980.0,HUF,980.0,
DANUBIUS,1993.02.01.,980.0,120.0,117600.0,,2,980.0,980.0,980.0,HUF,980.0,
DANUBIUS,1993.02.09.,980.0,30.0,29400.0,,1,980.0,980.0,980.0,HUF,980.0,
DANUBIUS,1993.02.12.,980.0,10.0,9800.0,,1,980.0,980.0,980.0,HUF,980.0,
DANUBIUS,1993.02.19.,980.0,30.0,29400.0,,1,980.0,980.0,980.0,HUF,980.0,
DANUBIUS,1993.03.12.,980.0,30.0,29400.0,,1,980.0,980.0,980.0,HUF,980.0,
DANUBIUS,1993.03.24.,980.0,260.0,254800.0,,2,980.0,980.0,980.0,HUF,980.0,
DANUBIUS,1993.03.26.,980.0,1000.0,980000.0,,2,980.0,980.0,980.0,HUF,980.0,
DANUBIUS,1993.04.09.,980.0,120.0,117400.0,,4,970.0,970.0,980.0,HUF,978.3333333333334,
DANUBIUS,1993.04.21.,950.0,110.0,104500.0,,2,950.0,950.0,950.0,HUF,950.0,
DANUBIUS,1993.04.27.,950.0,20.0,19400.0,,2,990.0,950.0,990.0,HUF,970.0,
DANUBIUS,1993.04.28.,920.0,50.0,46000.0,,1,920.0,920.0,920.0,HUF,920.0,
DANUBIUS,1993.05.06.,930.0,40.0,37200.0,,1,930.0,930.0,930.0,HUF,930.0,
DANUBIUS,1993.05.13.,930.0,50.0,46500.0,,1,930.0,930.0,930.0,HUF,930.0,
DANUBIUS,1993.06.02.,870.0,310.0,269700.0,,2,870.0,870.0,870.0,HUF,870.0,
DANUBIUS,1993.06.03.,890.0,90.0,79400.0,,3,880.0,880.0,890.0,HUF,882.2222222222222,
DANUBIUS,1993.06.07.,890.0,10.0,8900.0,,1,890.0,890.0,890.0,HUF,890.0,
DANUBIUS,1993.06.08.,880.0,20.0,17600.0,,2,880.0,880.0,880.0,HUF,880.0,
DANUBIUS,1993.06.09.,890.0,200.0,178000.0,,2,890.0,890.0,890.0,HUF,890.0,
DANUBIUS,1993.06.10.,890.0,300.0,267000.0,,2,890.0,890.0,890.0,HUF,890.0,
DANUBIUS,1993.06.24.,890.0,110.0,97900.0,,2,890.0,890.0,890.0,HUF,890.0,
DANUBIUS,1993.06.28.,920.0,150.0,138000.0,,1,920.0,920.0,920.0,HUF,920.0,
DANUBIUS,1993.06.29.,920.0,200.0,184000.0,,2,920.0,920.0,920.0,HUF,920.0,
DANUBIUS,1993.07.14.,900.0,9390.0,8451000.0,,1,900.0,900.0,900.0,HUF,900.0,
DANUBIUS,1993.08.12.,730.0,100.0,73000.0,,1,730.0,730.0,730.0,HUF,730.0,
DANUBIUS,1993.08.26.,900.0,11250.0,1.0125E7,,1,900.0,900.0,900.0,HUF,900.0,
DANUBIUS,1993.08.30.,700.0,100.0,70000.0,,3,700.0,700.0,700.0,HUF,700.0,
DANUBIUS,1993.08.31.,800.0,50.0,40000.0,,1,800.0,800.0,800.0,HUF,800.0,
DANUBIUS,1993.09.06.,800.0,590.0,472000.0,,1,800.0,800.0,800.0,HUF,800.0,
DANUBIUS,1993.09.07.,800.0,140.0,112000.0,,2,800.0,800.0,800.0,HUF,800.0,
DANUBIUS,1993.09.09.,820.0,220.0,180400.0,,2,820.0,820.0,820.0,HUF,820.0,
DANUBIUS,1993.09.23.,840.0,40.0,33600.0,,1,840.0,840.0,840.0,HUF,840.0,
DANUBIUS,1993.09.24.,820.0,200.0,165000.0,,2,830.0,820.0,830.0,HUF,825.0,
DANUBIUS,1993.09.28.,840.0,2080.0,1747200.0,,1,840.0,840.0,840.0,HUF,840.0,
DANUBIUS,1993.10.13.,900.0,13000.0,1.17E7,,1,900.0,900.0,900.0,HUF,900.0,
DANUBIUS,1993.10.14.,900.0,6000.0,5400000.0,,1,900.0,900.0,900.0,HUF,900.0,
DANUBIUS,1993.10.15.,900.0,60.0,54000.0,,2,900.0,900.0,900.0,HUF,900.0,
DANUBIUS,1993.10.18.,900.0,200.0,180000.0,,2,900.0,900.0,900.0,HUF,900.0,
DANUBIUS,1993.10.19.,895.0,130.0,116500.0,,2,900.0,895.0,900.0,HUF,896.1538461538462,
DANUBIUS,1993.10.20.,900.0,30.0,27000.0,,1,900.0,900.0,900.0,HUF,900.0,
DANUBIUS,1993.10.21.,890.0,10010.0,8909000.0,,2,900.0,890.0,900.0,HUF,890.00999000999,
DANUBIUS,1993.10.22.,900.0,60.0,54000.0,,1,900.0,900.0,900.0,HUF,900.0,
DANUBIUS,1993.11.08.,900.0,10400.0,9257000.0,,4,890.0,890.0,900.0,HUF,890.0961538461538,
DANUBIUS,1993.11.09.,890.0,12520.0,1.11428E7,,1,890.0,890.0,890.0,HUF,890.0,
DANUBIUS,1993.11.12.,900.0,110.0,99000.0,,2,900.0,900.0,900.0,HUF,900.0,
DANUBIUS,1993.11.29.,900.0,10.0,9000.0,,1,900.0,900.0,900.0,HUF,900.0,
DANUBIUS,1993.11.30.,895.0,20060.0,1.79537E7,,2,895.0,895.0,895.0,HUF,895.0,
DANUBIUS,1993.12.01.,895.0,13000.0,1.1635E7,,2,895.0,895.0,895.0,HUF,895.0,
DANUBIUS,1993.12.02.,895.0,10000.0,8950000.0,,2,895.0,895.0,895.0,HUF,895.0,
DANUBIUS,1993.12.03.,900.0,100.0,90000.0,,1,900.0,900.0,900.0,HUF,900.0,
DANUBIUS,1993.12.09.,900.0,1000.0,900000.0,,2,900.0,900.0,900.0,HUF,900.0,
DANUBIUS,1993.12.10.,900.0,100.0,90000.0,,1,900.0,900.0,900.0,HUF,900.0,
DANUBIUS,1993.12.13.,900.0,120.0,108000.0,,2,900.0,900.0,900.0,HUF,900.0,
DANUBIUS,1993.12.14.,860.0,50.0,44100.0,,3,900.0,850.0,900.0,HUF,882.0,
DANUBIUS,1993.12.20.,850.0,300.0,255000.0,,2,850.0,850.0,850.0,HUF,850.0,
DANUBIUS,1993.12.30.,750.0,70.0,52500.0,,1,750.0,750.0,750.0,HUF,750.0,
DANUBIUS,1993.12.31.,800.0,80.0,64000.0,,1,800.0,800.0,800.0,HUF,800.0,
DOMUS,1993.12.28.,1550.0,11850.0,1.709075E7,,50,1500.0,1360.0,1570.0,HUF,1442.2573839662448,
DOMUS,1993.12.29.,1395.0,12420.0,1.65911E7,,65,1395.0,1240.0,1400.0,HUF,1335.8373590982287,
DOMUS,1993.12.30.,1390.0,6610.0,9041000.0,,42,1365.0,1350.0,1390.0,HUF,1367.7760968229954,
DOMUS,1993.12.31.,1400.0,20190.0,2.84786E7,,85,1390.0,1390.0,1435.0,HUF,1410.529965329371,
DUNAHOLD,1993.01.18.,2130.0,50.0,106500.0,,1,2130.0,2130.0,2130.0,HUF,2130.0,
DUNAHOLD,1993.01.28.,2270.0,200.0,455000.0,,2,2280.0,2270.0,2280.0,HUF,2275.0,
DUNAHOLD,1993.01.29.,2300.0,20.0,46000.0,,2,2300.0,2300.0,2300.0,HUF,2300.0,
DUNAHOLD,1993.02.02.,2180.0,60.0,131100.0,,2,2190.0,2180.0,2190.0,HUF,2185.0,
DUNAHOLD,1993.02.08.,2010.0,100.0,201000.0,,2,2010.0,2010.0,2010.0,HUF,2010.0,
DUNAHOLD,1993.02.10.,2060.0,40.0,82300.0,,2,2050.0,2050.0,2060.0,HUF,2057.5,
DUNAHOLD,1993.02.11.,2070.0,10.0,20700.0,,1,2070.0,2070.0,2070.0,HUF,2070.0,
DUNAHOLD,1993.02.17.,2100.0,20.0,42000.0,,2,2100.0,2100.0,2100.0,HUF,2100.0,
DUNAHOLD,1993.02.18.,2100.0,30.0,63000.0,,1,2100.0,2100.0,2100.0,HUF,2100.0,
DUNAHOLD,1993.02.23.,2100.0,170.0,357000.0,,2,2100.0,2100.0,2100.0,HUF,2100.0,
DUNAHOLD,1993.02.26.,2110.0,10.0,21100.0,,1,2110.0,2110.0,2110.0,HUF,2110.0,
DUNAHOLD,1993.03.02.,2100.0,20.0,42000.0,,1,2100.0,2100.0,2100.0,HUF,2100.0,
DUNAHOLD,1993.03.03.,2100.0,60.0,126000.0,,1,2100.0,2100.0,2100.0,HUF,2100.0,
DUNAHOLD,1993.03.05.,2000.0,50.0,100000.0,,3,2000.0,2000.0,2000.0,HUF,2000.0,
DUNAHOLD,1993.03.11.,2050.0,20.0,41000.0,,1,2050.0,2050.0,2050.0,HUF,2050.0,
DUNAHOLD,1993.03.18.,2040.0,90.0,183600.0,,1,2040.0,2040.0,2040.0,HUF,2040.0,
DUNAHOLD,1993.03.19.,2050.0,50.0,102500.0,,1,2050.0,2050.0,2050.0,HUF,2050.0,
DUNAHOLD,1993.03.22.,2135.0,20.0,42350.0,,2,2100.0,2100.0,2135.0,HUF,2117.5,
DUNAHOLD,1993.03.23.,2165.0,20.0,43300.0,,1,2165.0,2165.0,2165.0,HUF,2165.0,
DUNAHOLD,1993.03.24.,2290.0,40.0,91600.0,,1,2290.0,2290.0,2290.0,HUF,2290.0,
DUNAHOLD,1993.03.25.,2400.0,210.0,504000.0,,3,2400.0,2400.0,2400.0,HUF,2400.0,
DUNAHOLD,1993.03.26.,2420.0,20.0,48400.0,,1,2420.0,2420.0,2420.0,HUF,2420.0,
DUNAHOLD,1993.03.29.,2370.0,40.0,94800.0,,1,2370.0,2370.0,2370.0,HUF,2370.0,
DUNAHOLD,1993.03.31.,2350.0,70.0,162500.0,,3,2310.0,2310.0,2350.0,HUF,2321.4285714285716,
DUNAHOLD,1993.04.01.,2320.0,90.0,208700.0,,2,2315.0,2315.0,2320.0,HUF,2318.888888888889,
DUNAHOLD,1993.04.05.,2050.0,20.0,41000.0,,1,2050.0,2050.0,2050.0,HUF,2050.0,
DUNAHOLD,1993.04.08.,2200.0,20.0,44000.0,,1,2200.0,2200.0,2200.0,HUF,2200.0,
DUNAHOLD,1993.04.23.,2150.0,10.0,21500.0,,1,2150.0,2150.0,2150.0,HUF,2150.0,
DUNAHOLD,1993.04.26.,2150.0,20.0,43000.0,,2,2150.0,2150.0,2150.0,HUF,2150.0,
DUNAHOLD,1993.04.27.,2250.0,40.0,89900.0,,3,2190.0,2190.0,2300.0,HUF,2247.5,
DUNAHOLD,1993.05.11.,2000.0,30.0,60000.0,,1,2000.0,2000.0,2000.0,HUF,2000.0,
DUNAHOLD,1993.05.12.,2020.0,10.0,20200.0,,1,2020.0,2020.0,2020.0,HUF,2020.0,
DUNAHOLD,1993.05.26.,1570.0,10.0,15700.0,,1,1570.0,1570.0,1570.0,HUF,1570.0,
DUNAHOLD,1993.06.03.,1500.0,20.0,30000.0,,1,1500.0,1500.0,1500.0,HUF,1500.0,
DUNAHOLD,1993.06.15.,1600.0,30.0,48000.0,,2,1600.0,1600.0,1600.0,HUF,1600.0,
DUNAHOLD,1993.06.16.,1575.0,10.0,15750.0,,1,1575.0,1575.0,1575.0,HUF,1575.0,
DUNAHOLD,1993.06.17.,1610.0,20.0,32200.0,,1,1610.0,1610.0,1610.0,HUF,1610.0,
DUNAHOLD,1993.06.24.,1550.0,10.0,15500.0,,1,1550.0,1550.0,1550.0,HUF,1550.0,
DUNAHOLD,1993.08.03.,1575.0,50.0,78750.0,,1,1575.0,1575.0,1575.0,HUF,1575.0,
DUNAHOLD,1993.08.06.,1595.0,80.0,127600.0,,1,1595.0,1595.0,1595.0,HUF,1595.0,
DUNAHOLD,1993.08.09.,1590.0,20.0,31800.0,,1,1590.0,1590.0,1590.0,HUF,1590.0,
DUNAHOLD,1993.08.11.,1580.0,40.0,63200.0,,1,1580.0,1580.0,1580.0,HUF,1580.0,
DUNAHOLD,1993.09.02.,1450.0,20.0,29000.0,,1,1450.0,1450.0,1450.0,HUF,1450.0,
DUNAHOLD,1993.09.09.,1450.0,20.0,29000.0,,1,1450.0,1450.0,1450.0,HUF,1450.0,
DUNAHOLD,1993.09.10.,1450.0,30.0,43500.0,,1,1450.0,1450.0,1450.0,HUF,1450.0,
DUNAHOLD,1993.09.23.,1430.0,50.0,71500.0,,1,1430.0,1430.0,1430.0,HUF,1430.0,
DUNAHOLD,1993.09.27.,1450.0,50.0,72500.0,,1,1450.0,1450.0,1450.0,HUF,1450.0,
DUNAHOLD,1993.09.28.,1465.0,10.0,14650.0,,1,1465.0,1465.0,1465.0,HUF,1465.0,
DUNAHOLD,1993.09.30.,1480.0,20.0,29600.0,,1,1480.0,1480.0,1480.0,HUF,1480.0,
DUNAHOLD,1993.10.06.,1510.0,50.0,75500.0,,1,1510.0,1510.0,1510.0,HUF,1510.0,
DUNAHOLD,1993.10.11.,1550.0,20.0,31000.0,,1,1550.0,1550.0,1550.0,HUF,1550.0,
DUNAHOLD,1993.10.12.,1600.0,10.0,16000.0,,1,1600.0,1600.0,1600.0,HUF,1600.0,
DUNAHOLD,1993.10.15.,1660.0,20.0,33200.0,,1,1660.0,1660.0,1660.0,HUF,1660.0,
DUNAHOLD,1993.10.26.,1770.0,40.0,70800.0,,1,1770.0,1770.0,1770.0,HUF,1770.0,
DUNAHOLD,1993.10.29.,1850.0,10.0,18500.0,,1,1850.0,1850.0,1850.0,HUF,1850.0,
DUNAHOLD,1993.11.08.,1950.0,10.0,19500.0,,1,1950.0,1950.0,1950.0,HUF,1950.0,
DUNAHOLD,1993.11.12.,1900.0,10.0,19000.0,,1,1900.0,1900.0,1900.0,HUF,1900.0,
DUNAHOLD,1993.11.18.,1830.0,10.0,18300.0,,1,1830.0,1830.0,1830.0,HUF,1830.0,
DUNAHOLD,1993.12.21.,1450.0,10.0,14500.0,,1,1450.0,1450.0,1450.0,HUF,1450.0,
DUNAHOLD,1993.12.22.,1400.0,150.0,208000.0,,3,1400.0,1360.0,1400.0,HUF,1386.6666666666667,
DUNAHOLD,1993.12.23.,1350.0,50.0,67500.0,,1,1350.0,1350.0,1350.0,HUF,1350.0,
DUNAHOLD,1993.12.28.,1350.0,100.0,135000.0,,3,1350.0,1350.0,1350.0,HUF,1350.0,
DUNAHOLD,1993.12.29.,1350.0,50.0,67500.0,,2,1350.0,1350.0,1350.0,HUF,1350.0,
DUNAHOLD,1993.12.30.,1350.0,450.0,607500.0,,3,1350.0,1350.0,1350.0,HUF,1350.0,
DUNAHOLD,1993.12.31.,1240.0,460.0,602900.0,,6,1350.0,1240.0,1350.0,HUF,1310.6521739130435,
GAREXR,1993.03.01.,15500.0,200.0,3100000.0,,2,15500.0,15500.0,15500.0,HUF,15500.0,
GAREXR,1993.04.06.,15500.0,14.0,217000.0,,1,15500.0,15500.0,15500.0,HUF,15500.0,
GAREXR,1993.10.28.,12000.0,7.0,84000.0,,2,12000.0,12000.0,12000.0,HUF,12000.0,
GAREXR,1993.11.01.,12000.0,4.0,48000.0,,1,12000.0,12000.0,12000.0,HUF,12000.0,
GAREXR,1993.11.02.,12000.0,7.0,84000.0,,2,12000.0,12000.0,12000.0,HUF,12000.0,
GAREXR,1993.11.03.,12000.0,14.0,168000.0,,3,12000.0,12000.0,12000.0,HUF,12000.0,
GAREXR,1993.11.04.,12000.0,10.0,120000.0,,2,12000.0,12000.0,12000.0,HUF,12000.0,
GAREXR,1993.11.10.,14000.0,20.0,280000.0,,1,14000.0,14000.0,14000.0,HUF,14000.0,
GAREXR,1993.12.02.,13000.0,10.0,130000.0,,2,13000.0,13000.0,13000.0,HUF,13000.0,
GAREXR,1993.12.03.,13000.0,10.0,130000.0,,2,13000.0,13000.0,13000.0,HUF,13000.0,
GAREXR,1993.12.06.,13000.0,10.0,130000.0,,1,13000.0,13000.0,13000.0,HUF,13000.0,
GAREXR,1993.12.21.,12000.0,10.0,120000.0,,1,12000.0,12000.0,12000.0,HUF,12000.0,
GAREXR,1993.12.22.,12000.0,10.0,120000.0,,1,12000.0,12000.0,12000.0,HUF,12000.0,
HUNGENT,1993.02.04.,600.0,10.0,6000.0,,1,600.0,600.0,600.0,HUF,600.0,
HUNGENT,1993.02.09.,500.0,10.0,5000.0,,1,500.0,500.0,500.0,HUF,500.0,
HUNGENT,1993.02.17.,650.0,110.0,71500.0,,2,650.0,650.0,650.0,HUF,650.0,
HUNGENT,1993.03.25.,755.0,10.0,7550.0,,1,755.0,755.0,755.0,HUF,755.0,
HUNGENT,1993.03.26.,780.0,10.0,7800.0,,1,780.0,780.0,780.0,HUF,780.0,
HUNGENT,1993.03.30.,850.0,10.0,8500.0,,1,850.0,850.0,850.0,HUF,850.0,
HUNGENT,1993.06.18.,800.0,80.0,64000.0,,1,800.0,800.0,800.0,HUF,800.0,
HUNGENT,1993.08.31.,1650.0,60.0,99000.0,,2,1650.0,1650.0,1650.0,HUF,1650.0,
HUNGENT,1993.09.01.,1650.0,120.0,198000.0,,2,1650.0,1650.0,1650.0,HUF,1650.0,
HUNGENT,1993.09.02.,2000.0,150.0,300000.0,,1,2000.0,2000.0,2000.0,HUF,2000.0,
HUNGENT,1993.09.06.,2480.0,150.0,372000.0,,1,2480.0,2480.0,2480.0,HUF,2480.0,
HUNGENT,1993.09.07.,2900.0,130.0,350000.0,,4,2660.0,2660.0,2900.0,HUF,2692.3076923076924,
HUNGENT,1993.09.08.,3100.0,2280.0,6953700.0,,14,3000.0,3000.0,3250.0,HUF,3049.8684210526317,
HUNGENT,1993.09.09.,3100.0,5000.0,1.5296E7,,14,3050.0,2800.0,3100.0,HUF,3059.2,
HUNGENT,1993.09.10.,3100.0,1000.0,3100000.0,,1,3100.0,3100.0,3100.0,HUF,3100.0,
HUNGENT,1993.09.13.,3150.0,110.0,346500.0,,2,3150.0,3150.0,3150.0,HUF,3150.0,
HUNGENT,1993.09.14.,3150.0,400.0,1260000.0,,1,3150.0,3150.0,3150.0,HUF,3150.0,
HUNGENT,1993.09.15.,3150.0,330.0,1039950.0,,4,3165.0,3150.0,3165.0,HUF,3151.3636363636365,
HUNGENT,1993.09.16.,3200.0,30.0,96000.0,,1,3200.0,3200.0,3200.0,HUF,3200.0,
HUNGENT,1993.09.17.,3400.0,100.0,340000.0,,1,3400.0,3400.0,3400.0,HUF,3400.0,
HUNGENT,1993.09.20.,4000.0,90.0,337200.0,,3,3430.0,3430.0,4000.0,HUF,3746.6666666666665,
HUNGENT,1993.09.21.,3800.0,240.0,940000.0,,5,4000.0,3800.0,4000.0,HUF,3916.6666666666665,
HUNGENT,1993.09.22.,3550.0,50.0,177500.0,,1,3550.0,3550.0,3550.0,HUF,3550.0,
HUNGENT,1993.09.23.,3440.0,20.0,68400.0,,2,3400.0,3400.0,3440.0,HUF,3420.0,
HUNGENT,1993.09.28.,3480.0,60.0,204800.0,,2,3400.0,3400.0,3480.0,HUF,3413.3333333333335,
HUNGENT,1993.09.29.,4000.0,430.0,1708000.0,,4,3600.0,3600.0,4000.0,HUF,3972.093023255814,
HUNGENT,1993.09.30.,4150.0,120.0,495000.0,,2,4000.0,4000.0,4150.0,HUF,4125.0,
HUNGENT,1993.10.01.,4400.0,300.0,1305000.0,,2,4250.0,4250.0,4400.0,HUF,4350.0,
HUNGENT,1993.10.04.,4105.0,50.0,205250.0,,1,4105.0,4105.0,4105.0,HUF,4105.0,
HUNGENT,1993.10.05.,4200.0,100.0,420000.0,,1,4200.0,4200.0,4200.0,HUF,4200.0,
HUNGENT,1993.10.06.,4200.0,100.0,420000.0,,1,4200.0,4200.0,4200.0,HUF,4200.0,
HUNGENT,1993.10.07.,4200.0,100.0,420000.0,,1,4200.0,4200.0,4200.0,HUF,4200.0,
HUNGENT,1993.10.08.,4050.0,320.0,1297500.0,,3,4200.0,4050.0,4200.0,HUF,4054.6875,
HUNGENT,1993.10.11.,4400.0,10.0,44000.0,,1,4400.0,4400.0,4400.0,HUF,4400.0,
HUNGENT,1993.10.12.,4100.0,10.0,41000.0,,1,4100.0,4100.0,4100.0,HUF,4100.0,
HUNGENT,1993.10.18.,3900.0,50.0,195000.0,,1,3900.0,3900.0,3900.0,HUF,3900.0,
HUNGENT,1993.10.19.,3700.0,160.0,592000.0,,2,3700.0,3700.0,3700.0,HUF,3700.0,
HUNGENT,1993.10.20.,3500.0,50.0,175000.0,,1,3500.0,3500.0,3500.0,HUF,3500.0,
HUNGENT,1993.10.21.,3500.0,10.0,35000.0,,1,3500.0,3500.0,3500.0,HUF,3500.0,
HUNGENT,1993.10.22.,3300.0,10.0,33000.0,,1,3300.0,3300.0,3300.0,HUF,3300.0,
HUNGENT,1993.10.28.,3350.0,50.0,167500.0,,1,3350.0,3350.0,3350.0,HUF,3350.0,
HUNGENT,1993.11.11.,3900.0,50.0,195000.0,,1,3900.0,3900.0,3900.0,HUF,3900.0,
HUNGENT,1993.11.12.,3850.0,10.0,38500.0,,1,3850.0,3850.0,3850.0,HUF,3850.0,
HUNGENT,1993.11.22.,3850.0,10.0,38500.0,,1,3850.0,3850.0,3850.0,HUF,3850.0,
HUNGENT,1993.11.29.,3000.0,10.0,30000.0,,1,3000.0,3000.0,3000.0,HUF,3000.0,
HUNGENT,1993.12.01.,2000.0,10.0,20000.0,,1,2000.0,2000.0,2000.0,HUF,2000.0,
HUNGENT,1993.12.03.,1500.0,10.0,15000.0,,1,1500.0,1500.0,1500.0,HUF,1500.0,
HUNGENT,1993.12.07.,1500.0,10.0,15000.0,,1,1500.0,1500.0,1500.0,HUF,1500.0,
HUNGENT,1993.12.23.,3000.0,50.0,150000.0,,1,3000.0,3000.0,3000.0,HUF,3000.0,
HUNGENT,1993.12.27.,2800.0,10.0,28000.0,,1,2800.0,2800.0,2800.0,HUF,2800.0,
HUNGENT,1993.12.28.,2800.0,410.0,1157900.0,,4,2800.0,2790.0,3000.0,HUF,2824.1463414634145,
HUNGENT,1993.12.29.,3000.0,40.0,120000.0,,2,3000.0,3000.0,3000.0,HUF,3000.0,
HUNGENT,1993.12.30.,3200.0,180.0,546000.0,,5,3000.0,3000.0,3200.0,HUF,3033.3333333333335,
HUNGENT,1993.12.31.,3500.0,100.0,353600.0,,6,3200.0,3200.0,3980.0,HUF,3536.0,
HUNMINING,1993.02.04.,500.0,10.0,5000.0,,1,500.0,500.0,500.0,HUF,500.0,
HUNMINING,1993.02.10.,570.0,10.0,5700.0,,1,570.0,570.0,570.0,HUF,570.0,
HUNMINING,1993.02.22.,500.0,90.0,45000.0,,1,500.0,500.0,500.0,HUF,500.0,
HUNMINING,1993.02.24.,500.0,100.0,50000.0,,1,500.0,500.0,500.0,HUF,500.0,
HUNMINING,1993.03.04.,550.0,240.0,132000.0,,1,550.0,550.0,550.0,HUF,550.0,
HUNMINING,1993.03.11.,540.0,5.0,2700.0,,1,540.0,540.0,540.0,HUF,540.0,
HUNMINING,1993.03.31.,600.0,10.0,6000.0,,1,600.0,600.0,600.0,HUF,600.0,
HUNMINING,1993.04.21.,550.0,10.0,5500.0,,1,550.0,550.0,550.0,HUF,550.0,
HUNMINING,1993.04.29.,500.0,2500.0,1250000.0,,1,500.0,500.0,500.0,HUF,500.0,
HUNMINING,1993.04.30.,500.0,2000.0,1000000.0,,2,500.0,500.0,500.0,HUF,500.0,
HUNMINING,1993.05.20.,500.0,80.0,40000.0,,2,500.0,500.0,500.0,HUF,500.0,
HUNMINING,1993.05.21.,500.0,20.0,10000.0,,1,500.0,500.0,500.0,HUF,500.0,
HUNMINING,1993.05.24.,500.0,910.0,455000.0,,3,500.0,500.0,500.0,HUF,500.0,
HUNMINING,1993.05.27.,500.0,240.0,120000.0,,1,500.0,500.0,500.0,HUF,500.0,
HUNMINING,1993.06.17.,500.0,230.0,115000.0,,1,500.0,500.0,500.0,HUF,500.0,
HUNMINING,1993.07.22.,540.0,50.0,27000.0,,1,540.0,540.0,540.0,HUF,540.0,
HUNMINING,1993.08.04.,580.0,20.0,11600.0,,1,580.0,580.0,580.0,HUF,580.0,
HUNMINING,1993.08.18.,595.0,50.0,29750.0,,1,595.0,595.0,595.0,HUF,595.0,
HUNMINING,1993.09.03.,600.0,10.0,6000.0,,1,600.0,600.0,600.0,HUF,600.0,
HUNMINING,1993.09.14.,900.0,50.0,45000.0,,1,900.0,900.0,900.0,HUF,900.0,
HUNMINING,1993.09.15.,1000.0,1430.0,1411000.0,,4,905.0,905.0,1000.0,HUF,986.7132867132867,
HUNMINING,1993.09.16.,1200.0,16270.0,1.88765E7,,10,1200.0,1100.0,1200.0,HUF,1160.20282728949,
HUNMINING,1993.09.17.,1300.0,20.0,26000.0,,1,1300.0,1300.0,1300.0,HUF,1300.0,
HUNMINING,1993.09.20.,1360.0,100.0,136000.0,,1,1360.0,1360.0,1360.0,HUF,1360.0,
HUNMINING,1993.09.21.,1650.0,1840.0,2825000.0,,15,1420.0,1400.0,1650.0,HUF,1535.3260869565217,
HUNMINING,1993.09.22.,1600.0,230.0,378000.0,,4,1600.0,1600.0,1650.0,HUF,1643.4782608695652,
HUNMINING,1993.09.23.,1905.0,1180.0,2078500.0,,9,1650.0,1650.0,1950.0,HUF,1761.4406779661017,
HUNMINING,1993.09.24.,1950.0,3340.0,6504200.0,,15,1850.0,1850.0,1980.0,HUF,1947.3652694610778,
HUNMINING,1993.09.27.,1950.0,70.0,136500.0,,1,1950.0,1950.0,1950.0,HUF,1950.0,
HUNMINING,1993.09.28.,1900.0,1590.0,3021000.0,,14,1900.0,1900.0,1900.0,HUF,1900.0,
HUNMINING,1993.09.29.,1915.0,500.0,957500.0,,1,1915.0,1915.0,1915.0,HUF,1915.0,
HUNMINING,1993.09.30.,1940.0,240.0,464950.0,,5,1915.0,1915.0,1940.0,HUF,1937.2916666666667,
HUNMINING,1993.10.01.,2000.0,330.0,654500.0,,8,1950.0,1950.0,2000.0,HUF,1983.3333333333333,
HUNMINING,1993.10.04.,2100.0,400.0,840000.0,,3,2100.0,2100.0,2100.0,HUF,2100.0,
HUNMINING,1993.10.05.,2200.0,30.0,66000.0,,1,2200.0,2200.0,2200.0,HUF,2200.0,
HUNMINING,1993.10.06.,2540.0,580.0,1391100.0,,10,2350.0,2350.0,2540.0,HUF,2398.448275862069,
HUNMINING,1993.10.07.,2450.0,100.0,245000.0,,2,2450.0,2450.0,2450.0,HUF,2450.0,
HUNMINING,1993.10.08.,3100.0,140.0,420000.0,,4,2900.0,2900.0,3100.0,HUF,3000.0,
HUNMINING,1993.10.11.,3300.0,50.0,165000.0,,2,3300.0,3300.0,3300.0,HUF,3300.0,
HUNMINING,1993.10.12.,3400.0,20230.0,6.8884E7,,13,3400.0,3400.0,3450.0,HUF,3405.0420168067226,
HUNMINING,1993.10.13.,3500.0,15360.0,5.39155E7,,9,3600.0,3450.0,3600.0,HUF,3510.1236979166665,
HUNMINING,1993.10.14.,3600.0,2340.0,8318700.0,,19,3550.0,3530.0,3600.0,HUF,3555.0,
HUNMINING,1993.10.15.,3700.0,500.0,1850000.0,,1,3700.0,3700.0,3700.0,HUF,3700.0,
HUNMINING,1993.10.18.,3800.0,3010.0,1.1436E7,,2,3600.0,3600.0,3800.0,HUF,3799.3355481727576,
HUNMINING,1993.10.19.,3900.0,620.0,2409700.0,,7,3800.0,3800.0,3900.0,HUF,3886.6129032258063,
HUNMINING,1993.10.20.,3900.0,110.0,429000.0,,1,3900.0,3900.0,3900.0,HUF,3900.0,
HUNMINING,1993.10.21.,4000.0,560.0,2227600.0,,5,3960.0,3960.0,4000.0,HUF,3977.8571428571427,
HUNMINING,1993.10.25.,4100.0,110.0,451000.0,,2,4100.0,4100.0,4100.0,HUF,4100.0,
HUNMINING,1993.10.26.,4300.0,120.0,516000.0,,2,4300.0,4300.0,4300.0,HUF,4300.0,
HUNMINING,1993.10.27.,4430.0,650.0,2860000.0,,4,4370.0,4370.0,4430.0,HUF,4400.0,
HUNMINING,1993.10.28.,4450.0,210.0,934500.0,,2,4450.0,4450.0,4450.0,HUF,4450.0,
HUNMINING,1993.10.29.,4600.0,410.0,1854800.0,,5,4500.0,4500.0,4600.0,HUF,4523.90243902439,
HUNMINING,1993.11.01.,4560.0,670.0,3053950.0,,5,4555.0,4555.0,4560.0,HUF,4558.134328358209,
HUNMINING,1993.11.02.,4550.0,90.0,409500.0,,1,4550.0,4550.0,4550.0,HUF,4550.0,
HUNMINING,1993.11.03.,4550.0,50.0,227500.0,,1,4550.0,4550.0,4550.0,HUF,4550.0,
HUNMINING,1993.11.04.,4570.0,280.0,1279300.0,,4,4560.0,4560.0,4570.0,HUF,4568.928571428572,
HUNMINING,1993.11.05.,4600.0,120.0,549500.0,,3,4550.0,4550.0,4600.0,HUF,4579.166666666667,
HUNMINING,1993.11.08.,4550.0,1030.0,4686500.0,,2,4550.0,4550.0,4550.0,HUF,4550.0,
HUNMINING,1993.11.11.,4600.0,90.0,411600.0,,6,4550.0,4550.0,4600.0,HUF,4573.333333333333,
HUNMINING,1993.11.16.,4550.0,40.0,182000.0,,2,4550.0,4550.0,4550.0,HUF,4550.0,
HUNMINING,1993.11.18.,4550.0,1840.0,8372000.0,,5,4550.0,4550.0,4550.0,HUF,4550.0,
HUNMINING,1993.11.19.,4540.0,1230.0,5574600.0,,3,4550.0,4530.0,4550.0,HUF,4532.195121951219,
HUNMINING,1993.11.22.,4500.0,10300.0,4.6644E7,,4,4530.0,4500.0,4530.0,HUF,4528.543689320389,
HUNMINING,1993.11.23.,4350.0,700.0,3090000.0,,4,4450.0,4350.0,4450.0,HUF,4414.285714285715,
HUNMINING,1993.11.25.,4250.0,470.0,2007500.0,,2,4300.0,4250.0,4300.0,HUF,4271.276595744681,
HUNMINING,1993.11.29.,4050.0,120.0,486000.0,,2,4050.0,4050.0,4050.0,HUF,4050.0,
HUNMINING,1993.11.30.,4000.0,100.0,400000.0,,1,4000.0,4000.0,4000.0,HUF,4000.0,
HUNMINING,1993.12.08.,4100.0,260.0,971000.0,,7,3600.0,3600.0,4100.0,HUF,3734.6153846153848,
HUNMINING,1993.12.10.,4350.0,530.0,2267000.0,,6,4050.0,4050.0,4350.0,HUF,4277.358490566037,
HUNMINING,1993.12.13.,4450.0,640.0,2762000.0,,13,4200.0,4200.0,4450.0,HUF,4315.625,
HUNMINING,1993.12.14.,4400.0,20.0,88000.0,,1,4400.0,4400.0,4400.0,HUF,4400.0,
HUNMINING,1993.12.15.,3500.0,700.0,2450000.0,,3,3500.0,3500.0,3500.0,HUF,3500.0,
HUNMINING,1993.12.16.,3500.0,30.0,105000.0,,1,3500.0,3500.0,3500.0,HUF,3500.0,
HUNMINING,1993.12.20.,3500.0,40.0,140000.0,,1,3500.0,3500.0,3500.0,HUF,3500.0,
HUNMINING,1993.12.21.,3400.0,2020.0,6570000.0,,3,3600.0,3250.0,3600.0,HUF,3252.4752475247524,
HUNMINING,1993.12.23.,3600.0,10.0,36000.0,,1,3600.0,3600.0,3600.0,HUF,3600.0,
HUNMINING,1993.12.27.,3800.0,10.0,38000.0,,1,3800.0,3800.0,3800.0,HUF,3800.0,
HUNMINING,1993.12.28.,4000.0,10.0,40000.0,,1,4000.0,4000.0,4000.0,HUF,4000.0,
HUNMINING,1993.12.29.,4050.0,10.0,40500.0,,1,4050.0,4050.0,4050.0,HUF,4050.0,
HUNMINING,1993.12.30.,4200.0,100.0,420000.0,,3,4200.0,4200.0,4200.0,HUF,4200.0,
HUNMINING,1993.12.31.,4000.0,470.0,1951600.0,,25,4400.0,3550.0,4405.0,HUF,4152.340425531915,
IBUSZ,1993.01.08.,2700.0,90.0,247500.0,,5,2850.0,2700.0,2850.0,HUF,2750.0,
IBUSZ,1993.01.11.,2650.0,700.0,1893400.0,,7,2750.0,2650.0,2750.0,HUF,2704.8571428571427,
IBUSZ,1993.01.12.,2450.0,700.0,1746000.0,,3,2510.0,2450.0,2510.0,HUF,2494.285714285714,
IBUSZ,1993.01.15.,2400.0,60.0,144000.0,,1,2400.0,2400.0,2400.0,HUF,2400.0,
IBUSZ,1993.01.21.,2000.0,500.0,1000000.0,,1,2000.0,2000.0,2000.0,HUF,2000.0,
IBUSZ,1993.01.22.,2000.0,130.0,265500.0,,5,2060.0,2000.0,2100.0,HUF,2042.3076923076924,
IBUSZ,1993.01.26.,2100.0,40.0,84000.0,,2,2100.0,2100.0,2100.0,HUF,2100.0,
IBUSZ,1993.01.27.,2000.0,600.0,1200000.0,,4,2000.0,2000.0,2000.0,HUF,2000.0,
IBUSZ,1993.01.28.,1900.0,670.0,1273000.0,,5,1900.0,1900.0,1900.0,HUF,1900.0,
IBUSZ,1993.01.29.,1900.0,250.0,475000.0,,5,1900.0,1900.0,1900.0,HUF,1900.0,
IBUSZ,1993.02.01.,1900.0,210.0,399000.0,,5,1900.0,1900.0,1900.0,HUF,1900.0,
IBUSZ,1993.02.02.,1900.0,1290.0,2441000.0,,6,1900.0,1890.0,1900.0,HUF,1892.2480620155038,
IBUSZ,1993.02.03.,1880.0,510.0,962600.0,,9,1900.0,1880.0,1900.0,HUF,1887.450980392157,
IBUSZ,1993.02.04.,1860.0,150.0,281000.0,,2,1900.0,1860.0,1900.0,HUF,1873.3333333333333,
IBUSZ,1993.02.05.,1860.0,80.0,149300.0,,2,1870.0,1860.0,1870.0,HUF,1866.25,
IBUSZ,1993.02.08.,1880.0,100.0,188000.0,,1,1880.0,1880.0,1880.0,HUF,1880.0,
IBUSZ,1993.02.09.,1870.0,300.0,561300.0,,2,1880.0,1870.0,1880.0,HUF,1871.0,
IBUSZ,1993.02.12.,1900.0,10.0,19000.0,,2,1900.0,1900.0,1900.0,HUF,1900.0,
IBUSZ,1993.02.15.,1900.0,60.0,114000.0,,2,1900.0,1900.0,1900.0,HUF,1900.0,
IBUSZ,1993.02.17.,1900.0,10.0,19000.0,,1,1900.0,1900.0,1900.0,HUF,1900.0,
IBUSZ,1993.02.18.,1820.0,140.0,257800.0,,3,1860.0,1820.0,1860.0,HUF,1841.4285714285713,
IBUSZ,1993.02.22.,1810.0,40.0,72600.0,,2,1820.0,1810.0,1820.0,HUF,1815.0,
IBUSZ,1993.02.23.,1780.0,135.0,241100.0,,3,1820.0,1780.0,1820.0,HUF,1785.9259259259259,
IBUSZ,1993.02.24.,1760.0,270.0,478400.0,,4,1820.0,1760.0,1820.0,HUF,1771.851851851852,
IBUSZ,1993.03.03.,1640.0,10.0,16400.0,,1,1640.0,1640.0,1640.0,HUF,1640.0,
IBUSZ,1993.03.04.,1640.0,10.0,16400.0,,1,1640.0,1640.0,1640.0,HUF,1640.0,
IBUSZ,1993.03.05.,1520.0,80.0,125600.0,,2,1600.0,1520.0,1600.0,HUF,1570.0,
IBUSZ,1993.03.09.,1500.0,100.0,150000.0,,3,1500.0,1500.0,1500.0,HUF,1500.0,
IBUSZ,1993.03.10.,1500.0,350.0,522000.0,,4,1500.0,1490.0,1500.0,HUF,1491.4285714285713,
IBUSZ,1993.03.11.,1520.0,30.0,45600.0,,1,1520.0,1520.0,1520.0,HUF,1520.0,
IBUSZ,1993.03.16.,1500.0,10.0,15000.0,,1,1500.0,1500.0,1500.0,HUF,1500.0,
IBUSZ,1993.03.17.,1490.0,864.0,1287660.0,,5,1520.0,1490.0,1520.0,HUF,1490.3472222222222,
IBUSZ,1993.03.18.,1490.0,66.0,98400.0,,3,1500.0,1490.0,1500.0,HUF,1490.909090909091,
IBUSZ,1993.03.19.,1480.0,180.0,266400.0,,2,1480.0,1480.0,1480.0,HUF,1480.0,
IBUSZ,1993.03.23.,1500.0,128.0,192000.0,,4,1500.0,1500.0,1500.0,HUF,1500.0,
IBUSZ,1993.03.24.,1510.0,2.0,3020.0,,1,1510.0,1510.0,1510.0,HUF,1510.0,
IBUSZ,1993.03.25.,1475.0,60.0,88750.0,,2,1500.0,1475.0,1500.0,HUF,1479.1666666666667,
IBUSZ,1993.03.31.,1440.0,350.0,506500.0,,3,1450.0,1440.0,1450.0,HUF,1447.142857142857,
IBUSZ,1993.04.02.,1430.0,140.0,200200.0,,3,1430.0,1430.0,1430.0,HUF,1430.0,
IBUSZ,1993.04.05.,1420.0,210.0,299300.0,,2,1430.0,1420.0,1430.0,HUF,1425.2380952380952,
IBUSZ,1993.04.14.,1325.0,100.0,132500.0,,1,1325.0,1325.0,1325.0,HUF,1325.0,
IBUSZ,1993.04.15.,1300.0,500.0,650000.0,,1,1300.0,1300.0,1300.0,HUF,1300.0,
IBUSZ,1993.04.23.,1200.0,20.0,24000.0,,1,1200.0,1200.0,1200.0,HUF,1200.0,
IBUSZ,1993.04.26.,965.0,960.0,971700.0,,4,1020.0,965.0,1020.0,HUF,1012.1875,
IBUSZ,1993.04.27.,950.0,300.0,285000.0,,3,950.0,950.0,950.0,HUF,950.0,
IBUSZ,1993.04.28.,900.0,50.0,45000.0,,2,900.0,900.0,900.0,HUF,900.0,
IBUSZ,1993.04.29.,800.0,300.0,240000.0,,4,800.0,800.0,800.0,HUF,800.0,
IBUSZ,1993.04.30.,880.0,720.0,623600.0,,4,830.0,830.0,880.0,HUF,866.1111111111111,
IBUSZ,1993.05.03.,900.0,960.0,864000.0,,12,900.0,900.0,900.0,HUF,900.0,
IBUSZ,1993.05.04.,920.0,1900.0,1715000.0,,18,900.0,900.0,920.0,HUF,902.6315789473684,
IBUSZ,1993.05.05.,930.0,900.0,837000.0,,13,930.0,930.0,930.0,HUF,930.0,
IBUSZ,1993.05.06.,940.0,400.0,376000.0,,10,940.0,940.0,940.0,HUF,940.0,
IBUSZ,1993.05.07.,940.0,590.0,554600.0,,3,940.0,940.0,940.0,HUF,940.0,
IBUSZ,1993.05.10.,940.0,110.0,103400.0,,2,940.0,940.0,940.0,HUF,940.0,
IBUSZ,1993.05.12.,930.0,150.0,139950.0,,2,935.0,930.0,935.0,HUF,933.0,
IBUSZ,1993.05.13.,930.0,190.0,177400.0,,3,935.0,930.0,935.0,HUF,933.6842105263158,
IBUSZ,1993.05.14.,930.0,80.0,74400.0,,2,930.0,930.0,930.0,HUF,930.0,
IBUSZ,1993.05.17.,1000.0,260.0,256000.0,,3,960.0,960.0,1000.0,HUF,984.6153846153846,
IBUSZ,1993.05.18.,1200.0,6050.0,6390000.0,,2,1055.0,1055.0,1200.0,HUF,1056.198347107438,
IBUSZ,1993.05.19.,1265.0,730.0,920150.0,,7,1250.0,1250.0,1265.0,HUF,1260.4794520547946,
IBUSZ,1993.05.20.,1230.0,260.0,323650.0,,4,1250.0,1230.0,1265.0,HUF,1244.8076923076924,
IBUSZ,1993.05.24.,1200.0,50.0,60000.0,,1,1200.0,1200.0,1200.0,HUF,1200.0,
IBUSZ,1993.05.25.,1300.0,2620.0,3403950.0,,18,1200.0,1200.0,1350.0,HUF,1299.2175572519084,
IBUSZ,1993.05.26.,1450.0,1700.0,2415500.0,,11,1380.0,1380.0,1450.0,HUF,1420.8823529411766,
IBUSZ,1993.05.27.,1400.0,180.0,252000.0,,2,1400.0,1400.0,1400.0,HUF,1400.0,
IBUSZ,1993.05.28.,1540.0,3050.0,4622500.0,,11,1400.0,1400.0,1540.0,HUF,1515.5737704918033,
IBUSZ,1993.06.02.,1410.0,80.0,115100.0,,4,1425.0,1410.0,1450.0,HUF,1438.75,
IBUSZ,1993.06.04.,1200.0,10.0,12000.0,,1,1200.0,1200.0,1200.0,HUF,1200.0,
IBUSZ,1993.06.08.,1170.0,100.0,117000.0,,1,1170.0,1170.0,1170.0,HUF,1170.0,
IBUSZ,1993.06.09.,1170.0,340.0,396800.0,,4,1170.0,1160.0,1170.0,HUF,1167.0588235294117,
IBUSZ,1993.06.10.,1170.0,10.0,11700.0,,1,1170.0,1170.0,1170.0,HUF,1170.0,
IBUSZ,1993.06.14.,1250.0,20.0,25000.0,,1,1250.0,1250.0,1250.0,HUF,1250.0,
IBUSZ,1993.06.15.,1100.0,20.0,22000.0,,1,1100.0,1100.0,1100.0,HUF,1100.0,
IBUSZ,1993.06.16.,1300.0,130.0,168600.0,,4,1260.0,1260.0,1300.0,HUF,1296.923076923077,
IBUSZ,1993.06.17.,1200.0,200.0,240800.0,,2,1210.0,1200.0,1210.0,HUF,1204.0,
IBUSZ,1993.06.21.,1250.0,60.0,75000.0,,1,1250.0,1250.0,1250.0,HUF,1250.0,
IBUSZ,1993.06.23.,1300.0,80.0,104000.0,,2,1300.0,1300.0,1300.0,HUF,1300.0,
IBUSZ,1993.06.25.,1250.0,70.0,87500.0,,2,1250.0,1250.0,1250.0,HUF,1250.0,
IBUSZ,1993.07.01.,1240.0,10.0,12400.0,,1,1240.0,1240.0,1240.0,HUF,1240.0,
IBUSZ,1993.07.02.,1250.0,20.0,25000.0,,1,1250.0,1250.0,1250.0,HUF,1250.0,
IBUSZ,1993.07.05.,1240.0,140.0,173600.0,,1,1240.0,1240.0,1240.0,HUF,1240.0,
IBUSZ,1993.07.06.,1200.0,40.0,47500.0,,2,1150.0,1150.0,1200.0,HUF,1187.5,
IBUSZ,1993.07.09.,1250.0,10.0,12500.0,,1,1250.0,1250.0,1250.0,HUF,1250.0,
IBUSZ,1993.07.13.,1250.0,110.0,137500.0,,2,1250.0,1250.0,1250.0,HUF,1250.0,
IBUSZ,1993.07.14.,1250.0,10.0,12500.0,,1,1250.0,1250.0,1250.0,HUF,1250.0,
IBUSZ,1993.07.19.,1200.0,50.0,60000.0,,1,1200.0,1200.0,1200.0,HUF,1200.0,
IBUSZ,1993.07.22.,1240.0,650.0,786400.0,,4,1200.0,1200.0,1240.0,HUF,1209.8461538461538,
IBUSZ,1993.07.23.,1200.0,30.0,36000.0,,1,1200.0,1200.0,1200.0,HUF,1200.0,
IBUSZ,1993.07.26.,1245.0,50.0,62250.0,,2,1245.0,1245.0,1245.0,HUF,1245.0,
IBUSZ,1993.07.27.,1245.0,150.0,184650.0,,5,1245.0,1200.0,1250.0,HUF,1231.0,
IBUSZ,1993.07.28.,1300.0,430.0,559000.0,,3,1300.0,1300.0,1300.0,HUF,1300.0,
IBUSZ,1993.08.03.,1300.0,130.0,168200.0,,3,1300.0,1290.0,1300.0,HUF,1293.8461538461538,
IBUSZ,1993.08.04.,1360.0,220.0,295200.0,,3,1330.0,1330.0,1360.0,HUF,1341.8181818181818,
IBUSZ,1993.08.06.,1500.0,80.0,119100.0,,2,1470.0,1470.0,1500.0,HUF,1488.75,
IBUSZ,1993.08.09.,1550.0,100.0,155000.0,,1,1550.0,1550.0,1550.0,HUF,1550.0,
IBUSZ,1993.08.10.,1610.0,70.0,112600.0,,2,1600.0,1600.0,1610.0,HUF,1608.5714285714287,
IBUSZ,1993.08.11.,1800.0,450.0,805900.0,,7,1695.0,1695.0,1800.0,HUF,1790.888888888889,
IBUSZ,1993.08.12.,1800.0,340.0,612000.0,,2,1800.0,1800.0,1800.0,HUF,1800.0,
IBUSZ,1993.08.13.,1795.0,100.0,174750.0,,2,1700.0,1700.0,1795.0,HUF,1747.5,
IBUSZ,1993.08.16.,1800.0,120.0,215000.0,,4,1790.0,1790.0,1800.0,HUF,1791.6666666666667,
IBUSZ,1993.08.17.,1940.0,220.0,403500.0,,7,1800.0,1800.0,1940.0,HUF,1834.090909090909,
IBUSZ,1993.08.18.,2070.0,600.0,1219150.0,,12,1960.0,1960.0,2070.0,HUF,2031.9166666666667,
IBUSZ,1993.08.19.,2400.0,840.0,1967400.0,,13,2090.0,2090.0,2420.0,HUF,2342.1428571428573,
IBUSZ,1993.08.23.,2100.0,10.0,21000.0,,1,2100.0,2100.0,2100.0,HUF,2100.0,
IBUSZ,1993.08.24.,1950.0,540.0,1053100.0,,8,2150.0,1930.0,2150.0,HUF,1950.1851851851852,
IBUSZ,1993.08.26.,1700.0,10.0,17000.0,,1,1700.0,1700.0,1700.0,HUF,1700.0,
IBUSZ,1993.08.30.,1600.0,40.0,64000.0,,1,1600.0,1600.0,1600.0,HUF,1600.0,
IBUSZ,1993.08.31.,1950.0,630.0,1225000.0,,6,1950.0,1850.0,1950.0,HUF,1944.4444444444443,
IBUSZ,1993.09.01.,2000.0,470.0,940350.0,,6,2000.0,2000.0,2005.0,HUF,2000.7446808510638,
IBUSZ,1993.09.02.,2000.0,100.0,200000.0,,1,2000.0,2000.0,2000.0,HUF,2000.0,
IBUSZ,1993.09.06.,1980.0,120.0,222800.0,,3,1800.0,1800.0,1980.0,HUF,1856.6666666666667,
IBUSZ,1993.09.07.,2020.0,1050.0,2107200.0,,14,2000.0,2000.0,2020.0,HUF,2006.857142857143,
IBUSZ,1993.09.08.,2300.0,1370.0,3011850.0,,17,2100.0,2100.0,2300.0,HUF,2198.4306569343066,
IBUSZ,1993.09.09.,2290.0,300.0,685150.0,,7,2200.0,2200.0,2295.0,HUF,2283.8333333333335,
IBUSZ,1993.09.10.,2280.0,100.0,227200.0,,3,2270.0,2270.0,2280.0,HUF,2272.0,
IBUSZ,1993.09.13.,2150.0,500.0,1080500.0,,4,2180.0,2150.0,2180.0,HUF,2161.0,
IBUSZ,1993.09.14.,2200.0,570.0,1250800.0,,10,2200.0,2160.0,2200.0,HUF,2194.3859649122805,
IBUSZ,1993.09.15.,2300.0,2710.0,6185450.0,,27,2250.0,2250.0,2310.0,HUF,2282.4538745387454,
IBUSZ,1993.09.17.,2215.0,20.0,44300.0,,2,2215.0,2215.0,2215.0,HUF,2215.0,
IBUSZ,1993.09.22.,2100.0,170.0,352400.0,,5,2000.0,2000.0,2100.0,HUF,2072.9411764705883,
IBUSZ,1993.09.23.,1995.0,100.0,202250.0,,3,2050.0,1995.0,2050.0,HUF,2022.5,
IBUSZ,1993.09.27.,2000.0,10.0,20000.0,,1,2000.0,2000.0,2000.0,HUF,2000.0,
IBUSZ,1993.09.28.,1800.0,100.0,180000.0,,3,1800.0,1800.0,1800.0,HUF,1800.0,
IBUSZ,1993.09.29.,1820.0,20.0,36400.0,,1,1820.0,1820.0,1820.0,HUF,1820.0,
IBUSZ,1993.10.01.,1850.0,140.0,261100.0,,3,1880.0,1850.0,1880.0,HUF,1865.0,
IBUSZ,1993.10.04.,1950.0,280.0,541000.0,,3,1900.0,1900.0,1950.0,HUF,1932.142857142857,
IBUSZ,1993.10.05.,2000.0,680.0,1358600.0,,15,1980.0,1980.0,2000.0,HUF,1997.9411764705883,
IBUSZ,1993.10.06.,2070.0,270.0,555500.0,,6,2050.0,2050.0,2090.0,HUF,2057.4074074074074,
IBUSZ,1993.10.07.,2095.0,1160.0,2434150.0,,11,2100.0,2090.0,2100.0,HUF,2098.405172413793,
IBUSZ,1993.10.08.,2095.0,360.0,754400.0,,6,2095.0,2095.0,2100.0,HUF,2095.5555555555557,
IBUSZ,1993.10.11.,2150.0,1070.0,2274850.0,,13,2100.0,2100.0,2150.0,HUF,2126.0280373831774,
IBUSZ,1993.10.12.,2145.0,180.0,385650.0,,5,2145.0,2130.0,2145.0,HUF,2142.5,
IBUSZ,1993.10.13.,2200.0,630.0,1363300.0,,12,2150.0,2140.0,2200.0,HUF,2163.968253968254,
IBUSZ,1993.10.14.,2100.0,170.0,358000.0,,3,2150.0,2100.0,2150.0,HUF,2105.8823529411766,
IBUSZ,1993.10.15.,2100.0,180.0,381350.0,,5,2100.0,2100.0,2155.0,HUF,2118.6111111111113,
IBUSZ,1993.10.18.,2155.0,360.0,776400.0,,5,2160.0,2155.0,2160.0,HUF,2156.6666666666665,
IBUSZ,1993.10.19.,2100.0,440.0,933650.0,,11,2150.0,2095.0,2150.0,HUF,2121.931818181818,
IBUSZ,1993.10.20.,2100.0,20.0,42000.0,,2,2100.0,2100.0,2100.0,HUF,2100.0,
IBUSZ,1993.10.21.,2125.0,60.0,126250.0,,3,2100.0,2100.0,2125.0,HUF,2104.1666666666665,
IBUSZ,1993.10.22.,2110.0,500.0,1053000.0,,7,2100.0,2100.0,2120.0,HUF,2106.0,
IBUSZ,1993.10.25.,2100.0,10.0,21000.0,,1,2100.0,2100.0,2100.0,HUF,2100.0,
IBUSZ,1993.10.26.,2115.0,70.0,148050.0,,1,2115.0,2115.0,2115.0,HUF,2115.0,
IBUSZ,1993.10.28.,2145.0,10.0,21450.0,,1,2145.0,2145.0,2145.0,HUF,2145.0,
IBUSZ,1993.10.29.,2110.0,30.0,63300.0,,1,2110.0,2110.0,2110.0,HUF,2110.0,
IBUSZ,1993.11.01.,2140.0,80.0,171200.0,,3,2140.0,2140.0,2140.0,HUF,2140.0,
IBUSZ,1993.11.03.,2100.0,10.0,21000.0,,1,2100.0,2100.0,2100.0,HUF,2100.0,
IBUSZ,1993.11.04.,2100.0,10.0,21000.0,,1,2100.0,2100.0,2100.0,HUF,2100.0,
IBUSZ,1993.11.05.,2105.0,390.0,820250.0,,10,2100.0,2100.0,2110.0,HUF,2103.2051282051284,
IBUSZ,1993.11.08.,2100.0,40.0,84000.0,,2,2100.0,2100.0,2100.0,HUF,2100.0,
IBUSZ,1993.11.09.,2000.0,100.0,200000.0,,1,2000.0,2000.0,2000.0,HUF,2000.0,
IBUSZ,1993.11.11.,2005.0,40.0,80050.0,,2,2000.0,2000.0,2005.0,HUF,2001.25,
IBUSZ,1993.11.12.,2010.0,20.0,40150.0,,2,2005.0,2005.0,2010.0,HUF,2007.5,
IBUSZ,1993.11.16.,2035.0,220.0,448150.0,,5,2050.0,2030.0,2050.0,HUF,2037.0454545454545,
IBUSZ,1993.11.17.,2040.0,120.0,240800.0,,2,2000.0,2000.0,2040.0,HUF,2006.6666666666667,
IBUSZ,1993.11.18.,2090.0,40.0,82950.0,,2,2025.0,2025.0,2090.0,HUF,2073.75,
IBUSZ,1993.11.22.,2000.0,100.0,200000.0,,3,2000.0,2000.0,2000.0,HUF,2000.0,
IBUSZ,1993.12.02.,1820.0,70.0,127000.0,,3,1800.0,1800.0,1820.0,HUF,1814.2857142857142,
IBUSZ,1993.12.03.,1800.0,60.0,108000.0,,2,1800.0,1800.0,1800.0,HUF,1800.0,
IBUSZ,1993.12.09.,1770.0,10.0,17700.0,,1,1770.0,1770.0,1770.0,HUF,1770.0,
IBUSZ,1993.12.10.,1800.0,60.0,106800.0,,3,1770.0,1770.0,1800.0,HUF,1780.0,
IBUSZ,1993.12.21.,1700.0,40.0,68000.0,,1,1700.0,1700.0,1700.0,HUF,1700.0,
IBUSZ,1993.12.22.,1720.0,10.0,17200.0,,1,1720.0,1720.0,1720.0,HUF,1720.0,
IBUSZ,1993.12.27.,1750.0,10.0,17500.0,,1,1750.0,1750.0,1750.0,HUF,1750.0,
IBUSZ,1993.12.29.,1700.0,50.0,85000.0,,2,1700.0,1700.0,1700.0,HUF,1700.0,
IBUSZ,1993.12.30.,1750.0,120.0,208800.0,,3,1720.0,1720.0,1750.0,HUF,1740.0,
IBUSZ,1993.12.31.,1300.0,1780.0,2355000.0,,13,1600.0,1300.0,1700.0,HUF,1323.0337078651685,
NITROIL,1993.10.20.,16000.0,1.0,16000.0,,1,16000.0,16000.0,16000.0,HUF,16000.0,
PFLAX,1993.03.03.,550.0,30.0,16500.0,,2,550.0,550.0,550.0,HUF,550.0,
PFLAX,1993.03.04.,550.0,70.0,38500.0,,1,550.0,550.0,550.0,HUF,550.0,
PFLAX,1993.03.05.,550.0,40.0,22000.0,,1,550.0,550.0,550.0,HUF,550.0,
PFLAX,1993.03.09.,450.0,50.0,22500.0,,1,450.0,450.0,450.0,HUF,450.0,
PFLAX,1993.03.11.,550.0,2.0,1100.0,,1,550.0,550.0,550.0,HUF,550.0,
PFLAX,1993.03.17.,550.0,3.0,1650.0,,1,550.0,550.0,550.0,HUF,550.0,
PFLAX,1993.04.16.,500.0,30.0,15000.0,,1,500.0,500.0,500.0,HUF,500.0,
PFLAX,1993.06.15.,400.0,30.0,12000.0,,1,400.0,400.0,400.0,HUF,400.0,
PFLAX,1993.06.17.,400.0,20.0,8000.0,,1,400.0,400.0,400.0,HUF,400.0,
PFLAX,1993.07.21.,340.0,40.0,13600.0,,1,340.0,340.0,340.0,HUF,340.0,
PFLAX,1993.07.23.,340.0,70.0,23800.0,,1,340.0,340.0,340.0,HUF,340.0,
PFLAX,1993.07.28.,380.0,10.0,3800.0,,1,380.0,380.0,380.0,HUF,380.0,
PFLAX,1993.07.29.,340.0,40.0,13600.0,,2,340.0,340.0,340.0,HUF,340.0,
PFLAX,1993.08.03.,360.0,270.0,97200.0,,2,360.0,360.0,360.0,HUF,360.0,
PFLAX,1993.08.04.,360.0,300.0,108000.0,,4,360.0,360.0,360.0,HUF,360.0,
PFLAX,1993.08.06.,380.0,1900.0,712000.0,,4,370.0,370.0,380.0,HUF,374.7368421052632,
PFLAX,1993.08.09.,380.0,1110.0,421750.0,,8,380.0,375.0,380.0,HUF,379.9549549549549,
PFLAX,1993.08.10.,390.0,1200.0,464500.0,,7,385.0,385.0,390.0,HUF,387.0833333333333,
PFLAX,1993.08.11.,390.0,800.0,312000.0,,4,390.0,390.0,390.0,HUF,390.0,
PFLAX,1993.08.12.,410.0,1800.0,720000.0,,10,395.0,395.0,410.0,HUF,400.0,
PFLAX,1993.08.13.,435.0,3360.0,1454100.0,,9,420.0,420.0,440.0,HUF,432.76785714285717,
PFLAX,1993.08.16.,450.0,700.0,315000.0,,4,450.0,450.0,450.0,HUF,450.0,
PFLAX,1993.08.17.,450.0,200.0,90000.0,,2,450.0,450.0,450.0,HUF,450.0,
PFLAX,1993.08.18.,450.0,550.0,247250.0,,4,450.0,445.0,450.0,HUF,449.54545454545456,
PFLAX,1993.08.23.,435.0,810.0,350500.0,,7,450.0,430.0,450.0,HUF,432.71604938271605,
PFLAX,1993.08.24.,430.0,400.0,173650.0,,3,435.0,430.0,435.0,HUF,434.125,
PFLAX,1993.08.25.,440.0,1880.0,817600.0,,7,430.0,430.0,440.0,HUF,434.8936170212766,
PFLAX,1993.08.26.,430.0,230.0,98900.0,,1,430.0,430.0,430.0,HUF,430.0,
PFLAX,1993.09.01.,415.0,340.0,141100.0,,2,415.0,415.0,415.0,HUF,415.0,
PFLAX,1993.09.02.,405.0,500.0,202500.0,,1,405.0,405.0,405.0,HUF,405.0,
PFLAX,1993.09.06.,390.0,260.0,102450.0,,4,405.0,390.0,405.0,HUF,394.03846153846155,
PFLAX,1993.09.07.,375.0,260.0,97500.0,,1,375.0,375.0,375.0,HUF,375.0,
PFLAX,1993.09.09.,370.0,20.0,7400.0,,2,370.0,370.0,370.0,HUF,370.0,
PFLAX,1993.09.10.,380.0,200.0,76000.0,,1,380.0,380.0,380.0,HUF,380.0,
PFLAX,1993.09.15.,400.0,30.0,12000.0,,1,400.0,400.0,400.0,HUF,400.0,
PFLAX,1993.09.21.,400.0,100.0,40000.0,,1,400.0,400.0,400.0,HUF,400.0,
PFLAX,1993.09.22.,400.0,20.0,8000.0,,1,400.0,400.0,400.0,HUF,400.0,
PFLAX,1993.09.23.,390.0,100.0,39000.0,,1,390.0,390.0,390.0,HUF,390.0,
PFLAX,1993.09.28.,375.0,400.0,149000.0,,2,370.0,370.0,375.0,HUF,372.5,
PFLAX,1993.09.30.,395.0,740.0,289800.0,,5,390.0,390.0,395.0,HUF,391.6216216216216,
PFLAX,1993.10.01.,400.0,100.0,40000.0,,1,400.0,400.0,400.0,HUF,400.0,
PFLAX,1993.10.04.,400.0,20.0,8000.0,,1,400.0,400.0,400.0,HUF,400.0,
PFLAX,1993.10.05.,405.0,300.0,120100.0,,5,400.0,400.0,405.0,HUF,400.3333333333333,
PFLAX,1993.10.06.,405.0,220.0,89100.0,,5,405.0,405.0,405.0,HUF,405.0,
PFLAX,1993.10.07.,415.0,310.0,129150.0,,6,415.0,415.0,420.0,HUF,416.61290322580646,
PFLAX,1993.10.08.,420.0,200.0,84000.0,,3,420.0,420.0,420.0,HUF,420.0,
PFLAX,1993.10.11.,435.0,580.0,247800.0,,6,425.0,425.0,435.0,HUF,427.2413793103448,
PFLAX,1993.10.12.,515.0,2480.0,1161700.0,,19,430.0,430.0,515.0,HUF,468.4274193548387,
PFLAX,1993.10.13.,600.0,7150.0,4812500.0,,23,540.0,540.0,740.0,HUF,673.0769230769231,
PFLAX,1993.10.14.,645.0,2600.0,1736800.0,,19,650.0,620.0,695.0,HUF,668.0,
PFLAX,1993.10.15.,650.0,3220.0,2017100.0,,23,590.0,580.0,670.0,HUF,626.4285714285714,
PFLAX,1993.10.18.,640.0,2820.0,1824050.0,,23,650.0,640.0,650.0,HUF,646.8262411347517,
PFLAX,1993.10.19.,590.0,930.0,549000.0,,10,605.0,585.0,605.0,HUF,590.3225806451613,
PFLAX,1993.10.20.,645.0,910.0,572150.0,,11,600.0,600.0,650.0,HUF,628.7362637362637,
PFLAX,1993.10.21.,630.0,2180.0,1434900.0,,23,650.0,630.0,670.0,HUF,658.2110091743119,
PFLAX,1993.10.22.,600.0,2420.0,1442750.0,,18,560.0,560.0,620.0,HUF,596.1776859504132,
PFLAX,1993.10.25.,595.0,2850.0,1703750.0,,5,625.0,595.0,625.0,HUF,597.8070175438596,
PFLAX,1993.10.26.,625.0,420.0,259200.0,,2,610.0,610.0,625.0,HUF,617.1428571428571,
PFLAX,1993.10.27.,620.0,500.0,310000.0,,5,620.0,620.0,620.0,HUF,620.0,
PFLAX,1993.10.28.,610.0,1260.0,774800.0,,8,620.0,610.0,630.0,HUF,614.9206349206349,
PFLAX,1993.10.29.,605.0,1030.0,624450.0,,7,615.0,605.0,615.0,HUF,606.2621359223301,
PFLAX,1993.11.01.,600.0,80.0,48000.0,,3,600.0,600.0,600.0,HUF,600.0,
PFLAX,1993.11.02.,600.0,560.0,336000.0,,4,600.0,600.0,600.0,HUF,600.0,
PFLAX,1993.11.04.,585.0,250.0,147000.0,,3,590.0,585.0,590.0,HUF,588.0,
PFLAX,1993.11.05.,555.0,2320.0,1315650.0,,15,585.0,555.0,585.0,HUF,567.0905172413793,
PFLAX,1993.11.09.,505.0,350.0,187350.0,,3,550.0,505.0,550.0,HUF,535.2857142857143,
PFLAX,1993.11.10.,495.0,2080.0,1028350.0,,10,500.0,480.0,510.0,HUF,494.39903846153845,
PFLAX,1993.11.11.,520.0,1230.0,620100.0,,11,500.0,500.0,520.0,HUF,504.1463414634146,
PFLAX,1993.11.12.,540.0,520.0,283000.0,,6,550.0,540.0,550.0,HUF,544.2307692307693,
PFLAX,1993.11.15.,525.0,750.0,394900.0,,7,540.0,520.0,540.0,HUF,526.5333333333333,
PFLAX,1993.11.16.,530.0,1060.0,562950.0,,9,535.0,530.0,535.0,HUF,531.0849056603773,
PFLAX,1993.11.17.,535.0,170.0,90350.0,,3,530.0,530.0,535.0,HUF,531.4705882352941,
PFLAX,1993.11.18.,530.0,40.0,21200.0,,1,530.0,530.0,530.0,HUF,530.0,
PFLAX,1993.11.19.,500.0,380.0,196850.0,,3,525.0,500.0,525.0,HUF,518.0263157894736,
PFLAX,1993.11.22.,540.0,80.0,43200.0,,1,540.0,540.0,540.0,HUF,540.0,
PFLAX,1993.11.23.,510.0,100.0,51000.0,,2,510.0,510.0,510.0,HUF,510.0,
PFLAX,1993.11.24.,505.0,2460.0,1254100.0,,10,510.0,505.0,510.0,HUF,509.7967479674797,
PFLAX,1993.11.25.,510.0,200.0,103000.0,,2,520.0,510.0,520.0,HUF,515.0,
PFLAX,1993.11.26.,485.0,120.0,58600.0,,3,510.0,485.0,510.0,HUF,488.3333333333333,
PFLAX,1993.11.29.,510.0,50.0,25500.0,,1,510.0,510.0,510.0,HUF,510.0,
PFLAX,1993.11.30.,500.0,70.0,35000.0,,1,500.0,500.0,500.0,HUF,500.0,
PFLAX,1993.12.02.,490.0,80.0,39200.0,,2,490.0,490.0,490.0,HUF,490.0,
PFLAX,1993.12.08.,490.0,20.0,9800.0,,1,490.0,490.0,490.0,HUF,490.0,
PFLAX,1993.12.10.,475.0,730.0,346750.0,,1,475.0,475.0,475.0,HUF,475.0,
PFLAX,1993.12.13.,475.0,30.0,14250.0,,2,475.0,475.0,475.0,HUF,475.0,
PFLAX,1993.12.17.,460.0,30.0,13800.0,,2,460.0,460.0,460.0,HUF,460.0,
PFLAX,1993.12.21.,470.0,30.0,14100.0,,1,470.0,470.0,470.0,HUF,470.0,
PFLAX,1993.12.28.,470.0,10.0,4700.0,,1,470.0,470.0,470.0,HUF,470.0,
SCOOPS,1993.01.11.,760.0,170.0,129200.0,,1,760.0,760.0,760.0,HUF,760.0,
SCOOPS,1993.01.13.,760.0,20.0,15200.0,,1,760.0,760.0,760.0,HUF,760.0,
SCOOPS,1993.01.15.,800.0,150.0,118900.0,,6,790.0,790.0,810.0,HUF,792.6666666666666,
SCOOPS,1993.01.25.,730.0,10.0,7300.0,,1,730.0,730.0,730.0,HUF,730.0,
SCOOPS,1993.01.27.,730.0,20.0,14600.0,,1,730.0,730.0,730.0,HUF,730.0,
SCOOPS,1993.01.29.,740.0,1900.0,1397000.0,,2,730.0,730.0,740.0,HUF,735.2631578947369,
SCOOPS,1993.02.02.,760.0,2640.0,2003800.0,,2,740.0,740.0,760.0,HUF,759.0151515151515,
SCOOPS,1993.02.03.,760.0,1230.0,928800.0,,4,750.0,750.0,760.0,HUF,755.1219512195122,
SCOOPS,1993.02.08.,750.0,400.0,300000.0,,2,750.0,750.0,750.0,HUF,750.0,
SCOOPS,1993.02.16.,720.0,300.0,216000.0,,1,720.0,720.0,720.0,HUF,720.0,
SCOOPS,1993.02.17.,720.0,20.0,14400.0,,1,720.0,720.0,720.0,HUF,720.0,
SCOOPS,1993.02.19.,750.0,70.0,52500.0,,1,750.0,750.0,750.0,HUF,750.0,
SCOOPS,1993.02.22.,740.0,20.0,14800.0,,1,740.0,740.0,740.0,HUF,740.0,
SCOOPS,1993.02.26.,740.0,2000.0,1480000.0,,3,740.0,740.0,740.0,HUF,740.0,
SCOOPS,1993.03.01.,740.0,2000.0,1480000.0,,2,740.0,740.0,740.0,HUF,740.0,
SCOOPS,1993.03.02.,740.0,100.0,74000.0,,1,740.0,740.0,740.0,HUF,740.0,
SCOOPS,1993.03.03.,740.0,50.0,37000.0,,1,740.0,740.0,740.0,HUF,740.0,
SCOOPS,1993.03.04.,720.0,200.0,144000.0,,1,720.0,720.0,720.0,HUF,720.0,
SCOOPS,1993.03.09.,730.0,160.0,116800.0,,1,730.0,730.0,730.0,HUF,730.0,
SCOOPS,1993.03.17.,730.0,10.0,7300.0,,1,730.0,730.0,730.0,HUF,730.0,
SCOOPS,1993.03.19.,730.0,100.0,73000.0,,1,730.0,730.0,730.0,HUF,730.0,
SCOOPS,1993.03.23.,730.0,102.0,74460.0,,2,730.0,730.0,730.0,HUF,730.0,
SCOOPS,1993.03.24.,730.0,158.0,115340.0,,3,730.0,730.0,730.0,HUF,730.0,
SCOOPS,1993.03.26.,730.0,200.0,146000.0,,1,730.0,730.0,730.0,HUF,730.0,
SCOOPS,1993.03.29.,730.0,200.0,146000.0,,1,730.0,730.0,730.0,HUF,730.0,
SCOOPS,1993.03.30.,730.0,250.0,182500.0,,1,730.0,730.0,730.0,HUF,730.0,
SCOOPS,1993.03.31.,730.0,100.0,73000.0,,1,730.0,730.0,730.0,HUF,730.0,
SCOOPS,1993.04.01.,735.0,200.0,146500.0,,3,730.0,730.0,735.0,HUF,732.5,
SCOOPS,1993.04.02.,730.0,500.0,365000.0,,1,730.0,730.0,730.0,HUF,730.0,
SCOOPS,1993.04.06.,740.0,180.0,133400.0,,4,730.0,730.0,745.0,HUF,741.1111111111111,
SCOOPS,1993.04.07.,740.0,250.0,184500.0,,4,740.0,735.0,740.0,HUF,738.0,
SCOOPS,1993.04.08.,740.0,150.0,111500.0,,2,745.0,740.0,745.0,HUF,743.3333333333334,
SCOOPS,1993.04.09.,745.0,150.0,111750.0,,1,745.0,745.0,745.0,HUF,745.0,
SCOOPS,1993.04.13.,740.0,150.0,111250.0,,3,745.0,740.0,745.0,HUF,741.6666666666666,
SCOOPS,1993.04.14.,730.0,1520.0,1114600.0,,3,735.0,730.0,735.0,HUF,733.2894736842105,
SCOOPS,1993.04.16.,725.0,50.0,36250.0,,1,725.0,725.0,725.0,HUF,725.0,
SCOOPS,1993.04.22.,730.0,380.0,277000.0,,4,725.0,725.0,730.0,HUF,728.9473684210526,
SCOOPS,1993.05.12.,680.0,10.0,6800.0,,1,680.0,680.0,680.0,HUF,680.0,
SCOOPS,1993.05.13.,690.0,70.0,48300.0,,1,690.0,690.0,690.0,HUF,690.0,
SCOOPS,1993.05.17.,700.0,2410.0,1677400.0,,5,700.0,690.0,700.0,HUF,696.0165975103735,
SCOOPS,1993.05.18.,700.0,490.0,343000.0,,3,700.0,700.0,700.0,HUF,700.0,
SCOOPS,1993.05.19.,700.0,300.0,210300.0,,3,710.0,700.0,710.0,HUF,701.0,
SCOOPS,1993.05.21.,710.0,1190.0,844900.0,,3,710.0,710.0,710.0,HUF,710.0,
SCOOPS,1993.05.24.,700.0,40.0,28000.0,,1,700.0,700.0,700.0,HUF,700.0,
SCOOPS,1993.05.26.,720.0,6440.0,4570900.0,,6,710.0,705.0,720.0,HUF,709.7670807453416,
SCOOPS,1993.05.27.,720.0,150.0,108000.0,,2,720.0,720.0,720.0,HUF,720.0,
SCOOPS,1993.06.01.,720.0,1070.0,770400.0,,1,720.0,720.0,720.0,HUF,720.0,
SCOOPS,1993.06.02.,740.0,5600.0,4097000.0,,6,730.0,730.0,740.0,HUF,731.6071428571429,
SCOOPS,1993.06.03.,765.0,5030.0,3772150.0,,14,740.0,740.0,765.0,HUF,749.9304174950298,
SCOOPS,1993.06.04.,765.0,500.0,382500.0,,1,765.0,765.0,765.0,HUF,765.0,
SCOOPS,1993.06.07.,755.0,100.0,75500.0,,1,755.0,755.0,755.0,HUF,755.0,
SCOOPS,1993.06.09.,740.0,400.0,296000.0,,3,740.0,740.0,740.0,HUF,740.0,
SCOOPS,1993.06.11.,740.0,40.0,29600.0,,1,740.0,740.0,740.0,HUF,740.0,
SCOOPS,1993.06.15.,770.0,6510.0,4990200.0,,8,740.0,740.0,780.0,HUF,766.5437788018434,
SCOOPS,1993.06.16.,800.0,1940.0,1531200.0,,6,770.0,770.0,800.0,HUF,789.2783505154639,
SCOOPS,1993.06.17.,790.0,400.0,315750.0,,4,785.0,785.0,790.0,HUF,789.375,
SCOOPS,1993.06.18.,810.0,600.0,482500.0,,5,795.0,795.0,810.0,HUF,804.1666666666666,
SCOOPS,1993.06.22.,805.0,150.0,120500.0,,2,800.0,800.0,805.0,HUF,803.3333333333334,
SCOOPS,1993.06.23.,780.0,1780.0,1388400.0,,2,780.0,780.0,780.0,HUF,780.0,
SCOOPS,1993.06.24.,780.0,10.0,7800.0,,1,780.0,780.0,780.0,HUF,780.0,
SCOOPS,1993.06.25.,900.0,230.0,200700.0,,4,850.0,850.0,900.0,HUF,872.6086956521739,
SCOOPS,1993.06.28.,950.0,550.0,500000.0,,2,900.0,900.0,950.0,HUF,909.0909090909091,
SCOOPS,1993.06.29.,980.0,1830.0,1791800.0,,3,975.0,975.0,980.0,HUF,979.1256830601093,
SCOOPS,1993.06.30.,920.0,100.0,92000.0,,1,920.0,920.0,920.0,HUF,920.0,
SCOOPS,1993.07.01.,855.0,220.0,188100.0,,2,855.0,855.0,855.0,HUF,855.0,
SCOOPS,1993.07.02.,850.0,6610.0,5631100.0,,12,880.0,850.0,880.0,HUF,851.9062027231467,
SCOOPS,1993.07.05.,855.0,430.0,365650.0,,2,850.0,850.0,855.0,HUF,850.3488372093024,
SCOOPS,1993.07.06.,850.0,4710.0,4003500.0,,7,850.0,850.0,850.0,HUF,850.0,
SCOOPS,1993.07.08.,850.0,1210.0,1028500.0,,4,850.0,850.0,850.0,HUF,850.0,
SCOOPS,1993.07.09.,850.0,150.0,127500.0,,2,850.0,850.0,850.0,HUF,850.0,
SCOOPS,1993.07.13.,830.0,530.0,429700.0,,2,810.0,810.0,830.0,HUF,810.7547169811321,
SCOOPS,1993.07.14.,820.0,500.0,410000.0,,1,820.0,820.0,820.0,HUF,820.0,
SCOOPS,1993.07.15.,840.0,1760.0,1494100.0,,4,845.0,840.0,850.0,HUF,848.9204545454545,
SCOOPS,1993.07.16.,1000.0,5180.0,5067800.0,,12,860.0,860.0,1050.0,HUF,978.3397683397683,
SCOOPS,1993.07.19.,1000.0,10790.0,1.0827E7,,11,1065.0,1000.0,1070.0,HUF,1003.4291010194625,
SCOOPS,1993.07.20.,1200.0,13060.0,1.34721E7,,16,1030.0,1010.0,1200.0,HUF,1031.5543644716693,
SCOOPS,1993.07.21.,1400.0,20170.0,2.72388E7,,35,1245.0,1245.0,1410.0,HUF,1350.4610808130888,
SCOOPS,1993.07.22.,1260.0,5750.0,7340500.0,,22,1450.0,1250.0,1450.0,HUF,1276.608695652174,
SCOOPS,1993.07.23.,1250.0,2440.0,3062050.0,,9,1230.0,1230.0,1275.0,HUF,1254.938524590164,
SCOOPS,1993.07.26.,1150.0,2850.0,3336000.0,,9,1240.0,1150.0,1240.0,HUF,1170.5263157894738,
SCOOPS,1993.07.27.,1165.0,1950.0,2258350.0,,10,1150.0,1150.0,1170.0,HUF,1158.128205128205,
SCOOPS,1993.07.28.,1250.0,5160.0,6433700.0,,13,1165.0,1165.0,1250.0,HUF,1246.8410852713178,
SCOOPS,1993.07.29.,1165.0,1700.0,2119000.0,,8,1245.0,1165.0,1250.0,HUF,1246.4705882352941,
SCOOPS,1993.07.30.,1150.0,940.0,1125900.0,,11,1210.0,1150.0,1210.0,HUF,1197.7659574468084,
SCOOPS,1993.08.02.,1100.0,70.0,77000.0,,2,1100.0,1100.0,1100.0,HUF,1100.0,
SCOOPS,1993.08.03.,1080.0,4720.0,5172900.0,,19,1100.0,1080.0,1190.0,HUF,1095.9533898305085,
SCOOPS,1993.08.04.,1115.0,970.0,1080450.0,,11,1120.0,1100.0,1150.0,HUF,1113.8659793814434,
SCOOPS,1993.08.06.,1240.0,7640.0,9326900.0,,23,1215.0,1200.0,1290.0,HUF,1220.7984293193717,
SCOOPS,1993.08.09.,1230.0,3570.0,4397900.0,,13,1250.0,1230.0,1250.0,HUF,1231.904761904762,
SCOOPS,1993.08.10.,1450.0,8830.0,1.16374E7,,18,1235.0,1235.0,1450.0,HUF,1317.938844847112,
SCOOPS,1993.08.11.,2000.0,7260.0,1.37374E7,,20,1500.0,1500.0,2000.0,HUF,1892.2038567493114,
SCOOPS,1993.08.12.,1700.0,17920.0,3.43349E7,,51,2100.0,1700.0,2250.0,HUF,1916.010044642857,
SCOOPS,1993.08.13.,1735.0,20340.0,3.49042E7,,55,1760.0,1680.0,1760.0,HUF,1716.0373647984268,
SCOOPS,1993.08.16.,1715.0,680.0,1164600.0,,5,1710.0,1705.0,1715.0,HUF,1712.6470588235295,
SCOOPS,1993.08.17.,1500.0,2090.0,3413500.0,,15,1700.0,1500.0,1700.0,HUF,1633.2535885167465,
SCOOPS,1993.08.18.,1240.0,3450.0,4384950.0,,30,1500.0,1235.0,1500.0,HUF,1271.0,
SCOOPS,1993.08.19.,1095.0,4690.0,5107400.0,,29,1100.0,1040.0,1100.0,HUF,1088.997867803838,
SCOOPS,1993.08.23.,1290.0,3830.0,4919400.0,,30,1225.0,1225.0,1295.0,HUF,1284.4386422976502,
SCOOPS,1993.08.24.,1400.0,320.0,439000.0,,4,1300.0,1300.0,1400.0,HUF,1371.875,
SCOOPS,1993.08.25.,1420.0,7850.0,1.11915E7,,23,1400.0,1400.0,1450.0,HUF,1425.6687898089172,
SCOOPS,1993.08.26.,1490.0,6300.0,9407500.0,,16,1500.0,1490.0,1500.0,HUF,1493.2539682539682,
SCOOPS,1993.08.27.,1450.0,1240.0,1839250.0,,11,1505.0,1450.0,1510.0,HUF,1483.266129032258,
SCOOPS,1993.08.30.,1455.0,450.0,655250.0,,5,1460.0,1455.0,1460.0,HUF,1456.111111111111,
SCOOPS,1993.08.31.,1410.0,1540.0,2140600.0,,12,1430.0,1350.0,1440.0,HUF,1390.0,
SCOOPS,1993.09.01.,1405.0,5270.0,7395600.0,,15,1400.0,1400.0,1415.0,HUF,1403.3396584440227,
SCOOPS,1993.09.02.,1405.0,200.0,281000.0,,2,1405.0,1405.0,1405.0,HUF,1405.0,
SCOOPS,1993.09.03.,1500.0,15040.0,2.21711E7,,42,1355.0,1355.0,1500.0,HUF,1474.1422872340424,
SCOOPS,1993.09.06.,1595.0,3990.0,6279500.0,,15,1550.0,1550.0,1595.0,HUF,1573.8095238095239,
SCOOPS,1993.09.07.,1650.0,9830.0,1.63667E7,,34,1620.0,1620.0,1695.0,HUF,1664.9745676500509,
SCOOPS,1993.09.08.,1600.0,470.0,766500.0,,5,1660.0,1600.0,1660.0,HUF,1630.8510638297873,
SCOOPS,1993.09.09.,1465.0,5030.0,7328500.0,,10,1450.0,1450.0,1470.0,HUF,1456.9582504970178,
SCOOPS,1993.09.10.,1495.0,4340.0,6454800.0,,18,1470.0,1465.0,1500.0,HUF,1487.2811059907833,
SCOOPS,1993.09.13.,1500.0,3330.0,4995000.0,,13,1500.0,1500.0,1500.0,HUF,1500.0,
SCOOPS,1993.09.14.,1540.0,2960.0,4531650.0,,10,1515.0,1515.0,1540.0,HUF,1530.962837837838,
SCOOPS,1993.09.15.,1745.0,14860.0,2.572295E7,,49,1595.0,1595.0,1750.0,HUF,1731.0195154777928,
SCOOPS,1993.09.16.,1765.0,2580.0,4570550.0,,13,1715.0,1715.0,1800.0,HUF,1771.531007751938,
SCOOPS,1993.09.17.,1755.0,3390.0,5950800.0,,12,1750.0,1750.0,1760.0,HUF,1755.3982300884957,
SCOOPS,1993.09.20.,1735.0,14720.0,2.534845E7,,31,1770.0,1700.0,1770.0,HUF,1722.0414402173913,
SCOOPS,1993.09.21.,1640.0,3770.0,6237850.0,,24,1730.0,1630.0,1730.0,HUF,1654.602122015915,
SCOOPS,1993.09.22.,1600.0,300.0,480000.0,,3,1600.0,1600.0,1600.0,HUF,1600.0,
SCOOPS,1993.09.23.,1585.0,200.0,317000.0,,1,1585.0,1585.0,1585.0,HUF,1585.0,
SCOOPS,1993.09.24.,1575.0,1910.0,3008400.0,,4,1580.0,1560.0,1585.0,HUF,1575.0785340314137,
SCOOPS,1993.09.27.,1575.0,1200.0,1876400.0,,6,1560.0,1560.0,1575.0,HUF,1563.6666666666667,
SCOOPS,1993.09.28.,1585.0,200.0,317000.0,,1,1585.0,1585.0,1585.0,HUF,1585.0,
SCOOPS,1993.09.29.,1600.0,300.0,480000.0,,1,1600.0,1600.0,1600.0,HUF,1600.0,
SCOOPS,1993.09.30.,1650.0,5060.0,8346650.0,,7,1600.0,1600.0,1650.0,HUF,1649.5355731225297,
SCOOPS,1993.10.01.,1700.0,350.0,595000.0,,3,1700.0,1700.0,1700.0,HUF,1700.0,
SCOOPS,1993.10.04.,1700.0,240.0,417500.0,,4,1750.0,1700.0,1750.0,HUF,1739.5833333333333,
SCOOPS,1993.10.05.,1715.0,560.0,963800.0,,6,1720.0,1710.0,1730.0,HUF,1721.0714285714287,
SCOOPS,1993.10.06.,1725.0,1500.0,2595350.0,,10,1730.0,1725.0,1735.0,HUF,1730.2333333333333,
SCOOPS,1993.10.07.,1800.0,250.0,447000.0,,5,1750.0,1750.0,1800.0,HUF,1788.0,
SCOOPS,1993.10.08.,1800.0,290.0,522000.0,,4,1800.0,1800.0,1800.0,HUF,1800.0,
SCOOPS,1993.10.11.,1900.0,530.0,997200.0,,10,1880.0,1845.0,1900.0,HUF,1881.5094339622642,
SCOOPS,1993.10.12.,1885.0,310.0,602700.0,,6,1970.0,1885.0,1970.0,HUF,1944.1935483870968,
SCOOPS,1993.10.13.,1900.0,40.0,76000.0,,1,1900.0,1900.0,1900.0,HUF,1900.0,
SCOOPS,1993.10.14.,1750.0,570.0,1004500.0,,6,1780.0,1750.0,1780.0,HUF,1762.280701754386,
SCOOPS,1993.10.15.,1750.0,2430.0,4247050.0,,9,1745.0,1745.0,1760.0,HUF,1747.7572016460906,
SCOOPS,1993.10.18.,1700.0,1390.0,2371800.0,,6,1730.0,1700.0,1740.0,HUF,1706.3309352517986,
SCOOPS,1993.10.19.,1680.0,210.0,352800.0,,1,1680.0,1680.0,1680.0,HUF,1680.0,
SCOOPS,1993.10.20.,1670.0,50.0,83500.0,,1,1670.0,1670.0,1670.0,HUF,1670.0,
SCOOPS,1993.10.21.,1640.0,2280.0,3751250.0,,7,1670.0,1640.0,1670.0,HUF,1645.2850877192982,
SCOOPS,1993.10.22.,1710.0,270.0,453850.0,,4,1630.0,1630.0,1710.0,HUF,1680.9259259259259,
SCOOPS,1993.10.25.,1725.0,1170.0,2009900.0,,10,1710.0,1710.0,1725.0,HUF,1717.8632478632478,
SCOOPS,1993.10.26.,1800.0,170.0,302500.0,,4,1750.0,1750.0,1800.0,HUF,1779.4117647058824,
SCOOPS,1993.10.27.,1900.0,310.0,578500.0,,4,1850.0,1850.0,1900.0,HUF,1866.1290322580646,
SCOOPS,1993.10.28.,1950.0,250.0,482500.0,,4,1900.0,1900.0,1950.0,HUF,1930.0,
SCOOPS,1993.10.29.,2050.0,1400.0,2809000.0,,14,1955.0,1955.0,2050.0,HUF,2006.4285714285713,
SCOOPS,1993.11.01.,2100.0,610.0,1265000.0,,10,2050.0,2050.0,2100.0,HUF,2073.7704918032787,
SCOOPS,1993.11.03.,2125.0,220.0,471500.0,,5,2150.0,2125.0,2150.0,HUF,2143.181818181818,
SCOOPS,1993.11.04.,2150.0,510.0,1096500.0,,4,2150.0,2150.0,2150.0,HUF,2150.0,
SCOOPS,1993.11.05.,2175.0,640.0,1381650.0,,9,2160.0,2155.0,2175.0,HUF,2158.828125,
SCOOPS,1993.11.08.,2200.0,4530.0,9965000.0,,5,2180.0,2180.0,2200.0,HUF,2199.7792494481237,
SCOOPS,1993.11.09.,2200.0,300.0,660250.0,,3,2205.0,2200.0,2205.0,HUF,2200.8333333333335,
SCOOPS,1993.11.10.,2200.0,180.0,396000.0,,4,2200.0,2200.0,2200.0,HUF,2200.0,
SCOOPS,1993.11.11.,2200.0,170.0,374000.0,,2,2200.0,2200.0,2200.0,HUF,2200.0,
SCOOPS,1993.11.12.,2200.0,60.0,132000.0,,2,2200.0,2200.0,2200.0,HUF,2200.0,
SCOOPS,1993.11.16.,2235.0,80.0,178800.0,,1,2235.0,2235.0,2235.0,HUF,2235.0,
SCOOPS,1993.11.17.,2250.0,440.0,971100.0,,5,2200.0,2200.0,2250.0,HUF,2207.0454545454545,
SCOOPS,1993.11.18.,2250.0,770.0,1732500.0,,1,2250.0,2250.0,2250.0,HUF,2250.0,
SCOOPS,1993.11.19.,2350.0,370.0,846000.0,,5,2270.0,2255.0,2350.0,HUF,2286.4864864864867,
SCOOPS,1993.11.22.,2350.0,50.0,117500.0,,2,2350.0,2350.0,2350.0,HUF,2350.0,
SCOOPS,1993.11.23.,2350.0,1350.0,3172500.0,,7,2350.0,2350.0,2350.0,HUF,2350.0,
SCOOPS,1993.11.24.,2300.0,50.0,115000.0,,1,2300.0,2300.0,2300.0,HUF,2300.0,
SCOOPS,1993.11.25.,2300.0,1010.0,2323000.0,,4,2300.0,2300.0,2300.0,HUF,2300.0,
SCOOPS,1993.11.30.,2275.0,80.0,182150.0,,2,2280.0,2275.0,2280.0,HUF,2276.875,
SCOOPS,1993.12.01.,2150.0,20.0,43000.0,,1,2150.0,2150.0,2150.0,HUF,2150.0,
SCOOPS,1993.12.02.,2150.0,780.0,1687500.0,,5,2205.0,2150.0,2205.0,HUF,2163.4615384615386,
SCOOPS,1993.12.03.,2100.0,10.0,21000.0,,1,2100.0,2100.0,2100.0,HUF,2100.0,
SCOOPS,1993.12.13.,2000.0,100.0,200000.0,,1,2000.0,2000.0,2000.0,HUF,2000.0,
SCOOPS,1993.12.14.,2010.0,50.0,100400.0,,2,2005.0,2005.0,2010.0,HUF,2008.0,
SCOOPS,1993.12.15.,2000.0,60.0,120000.0,,1,2000.0,2000.0,2000.0,HUF,2000.0,
SCOOPS,1993.12.29.,2100.0,100.0,210000.0,,1,2100.0,2100.0,2100.0,HUF,2100.0,
SCOOPS,1993.12.31.,2300.0,400.0,931100.0,,10,2340.0,2250.0,2350.0,HUF,2327.75,
SKALA,1993.01.12.,760.0,200.0,152000.0,,2,760.0,760.0,760.0,HUF,760.0,
SKALA,1993.01.14.,750.0,60.0,45000.0,,1,750.0,750.0,750.0,HUF,750.0,
SKALA,1993.01.15.,750.0,100.0,75000.0,,1,750.0,750.0,750.0,HUF,750.0,
SKALA,1993.01.19.,740.0,30.0,22200.0,,1,740.0,740.0,740.0,HUF,740.0,
SKALA,1993.01.27.,730.0,70.0,51100.0,,1,730.0,730.0,730.0,HUF,730.0,
SKALA,1993.01.28.,750.0,200.0,150000.0,,1,750.0,750.0,750.0,HUF,750.0,
SKALA,1993.01.29.,740.0,300.0,222000.0,,1,740.0,740.0,740.0,HUF,740.0,
SKALA,1993.02.01.,740.0,30.0,22200.0,,1,740.0,740.0,740.0,HUF,740.0,
SKALA,1993.02.02.,750.0,2550.0,1890000.0,,2,740.0,740.0,750.0,HUF,741.1764705882352,
SKALA,1993.02.03.,740.0,1890.0,1408700.0,,5,740.0,740.0,750.0,HUF,745.3439153439153,
SKALA,1993.02.04.,750.0,40.0,30000.0,,1,750.0,750.0,750.0,HUF,750.0,
SKALA,1993.02.05.,750.0,500.0,375000.0,,2,750.0,750.0,750.0,HUF,750.0,
SKALA,1993.02.08.,750.0,2500.0,1875000.0,,2,750.0,750.0,750.0,HUF,750.0,
SKALA,1993.02.09.,750.0,50.0,37500.0,,1,750.0,750.0,750.0,HUF,750.0,
SKALA,1993.02.10.,750.0,100.0,75000.0,,1,750.0,750.0,750.0,HUF,750.0,
SKALA,1993.02.11.,750.0,100.0,75000.0,,1,750.0,750.0,750.0,HUF,750.0,
SKALA,1993.02.12.,750.0,100.0,75000.0,,1,750.0,750.0,750.0,HUF,750.0,
SKALA,1993.02.18.,750.0,2450.0,1793500.0,,7,740.0,730.0,750.0,HUF,732.0408163265306,
SKALA,1993.02.19.,750.0,1250.0,913500.0,,2,730.0,730.0,750.0,HUF,730.8,
SKALA,1993.02.22.,750.0,100.0,75000.0,,1,750.0,750.0,750.0,HUF,750.0,
SKALA,1993.02.23.,750.0,100.0,75000.0,,1,750.0,750.0,750.0,HUF,750.0,
SKALA,1993.02.24.,750.0,2000.0,1499000.0,,6,740.0,740.0,750.0,HUF,749.5,
SKALA,1993.02.25.,750.0,100.0,75000.0,,2,750.0,750.0,750.0,HUF,750.0,
SKALA,1993.02.26.,750.0,400.0,299000.0,,2,740.0,740.0,750.0,HUF,747.5,
SKALA,1993.03.01.,750.0,100.0,75000.0,,1,750.0,750.0,750.0,HUF,750.0,
SKALA,1993.03.10.,730.0,200.0,146000.0,,1,730.0,730.0,730.0,HUF,730.0,
SKALA,1993.03.11.,720.0,44.0,31720.0,,2,730.0,720.0,730.0,HUF,720.9090909090909,
SKALA,1993.03.12.,730.0,510.0,372300.0,,3,730.0,730.0,730.0,HUF,730.0,
SKALA,1993.03.16.,730.0,70.0,51100.0,,1,730.0,730.0,730.0,HUF,730.0,
SKALA,1993.03.17.,730.0,50.0,36500.0,,1,730.0,730.0,730.0,HUF,730.0,
SKALA,1993.03.18.,730.0,210.0,153300.0,,2,730.0,730.0,730.0,HUF,730.0,
SKALA,1993.03.19.,730.0,100.0,73000.0,,1,730.0,730.0,730.0,HUF,730.0,
SKALA,1993.03.22.,730.0,200.0,146000.0,,1,730.0,730.0,730.0,HUF,730.0,
SKALA,1993.03.23.,750.0,500.0,368000.0,,4,730.0,725.0,750.0,HUF,736.0,
SKALA,1993.03.24.,735.0,120.0,88700.0,,3,740.0,735.0,740.0,HUF,739.1666666666666,
SKALA,1993.03.25.,730.0,100.0,73000.0,,1,730.0,730.0,730.0,HUF,730.0,
SKALA,1993.03.30.,730.0,460.0,335800.0,,3,730.0,730.0,730.0,HUF,730.0,
SKALA,1993.04.01.,750.0,350.0,259850.0,,7,730.0,730.0,750.0,HUF,742.4285714285714,
SKALA,1993.04.02.,745.0,400.0,298000.0,,4,745.0,745.0,745.0,HUF,745.0,
SKALA,1993.04.05.,745.0,100.0,74500.0,,1,745.0,745.0,745.0,HUF,745.0,
SKALA,1993.04.06.,740.0,200.0,148000.0,,4,740.0,740.0,740.0,HUF,740.0,
SKALA,1993.04.07.,735.0,100.0,73500.0,,1,735.0,735.0,735.0,HUF,735.0,
SKALA,1993.04.08.,750.0,480.0,357000.0,,9,750.0,735.0,750.0,HUF,743.75,
SKALA,1993.04.09.,750.0,100.0,75000.0,,2,750.0,750.0,750.0,HUF,750.0,
SKALA,1993.04.13.,750.0,150.0,112500.0,,2,750.0,750.0,750.0,HUF,750.0,
SKALA,1993.04.14.,740.0,260.0,192650.0,,4,740.0,740.0,745.0,HUF,740.9615384615385,
SKALA,1993.04.15.,740.0,290.0,214600.0,,4,740.0,740.0,740.0,HUF,740.0,
SKALA,1993.04.16.,745.0,500.0,371750.0,,6,740.0,740.0,745.0,HUF,743.5,
SKALA,1993.04.19.,740.0,400.0,296000.0,,4,740.0,740.0,740.0,HUF,740.0,
SKALA,1993.04.20.,740.0,480.0,354200.0,,7,740.0,735.0,740.0,HUF,737.9166666666666,
SKALA,1993.04.21.,740.0,350.0,259000.0,,3,740.0,740.0,740.0,HUF,740.0,
SKALA,1993.04.22.,735.0,370.0,272500.0,,5,735.0,735.0,740.0,HUF,736.4864864864865,
SKALA,1993.04.26.,720.0,130.0,93600.0,,1,720.0,720.0,720.0,HUF,720.0,
SKALA,1993.05.03.,720.0,1000.0,720000.0,,1,720.0,720.0,720.0,HUF,720.0,
SKALA,1993.05.06.,700.0,10.0,7000.0,,1,700.0,700.0,700.0,HUF,700.0,
SKALA,1993.05.07.,700.0,110.0,77000.0,,4,700.0,700.0,700.0,HUF,700.0,
SKALA,1993.05.12.,710.0,10.0,7100.0,,1,710.0,710.0,710.0,HUF,710.0,
SKALA,1993.05.17.,710.0,4000.0,2840000.0,,9,710.0,710.0,710.0,HUF,710.0,
SKALA,1993.05.18.,720.0,390.0,280800.0,,1,720.0,720.0,720.0,HUF,720.0,
SKALA,1993.05.19.,720.0,1010.0,727200.0,,2,720.0,720.0,720.0,HUF,720.0,
SKALA,1993.05.21.,725.0,4230.0,3060600.0,,5,720.0,720.0,725.0,HUF,723.5460992907801,
SKALA,1993.05.24.,695.0,400.0,277000.0,,3,690.0,690.0,695.0,HUF,692.5,
SKALA,1993.05.26.,730.0,16420.0,1.18824E7,,18,710.0,710.0,730.0,HUF,723.6540803897685,
SKALA,1993.05.27.,730.0,1000.0,730000.0,,2,730.0,730.0,730.0,HUF,730.0,
SKALA,1993.05.28.,730.0,2130.0,1554900.0,,4,730.0,730.0,730.0,HUF,730.0,
SKALA,1993.06.01.,735.0,6300.0,4606500.0,,8,730.0,730.0,735.0,HUF,731.1904761904761,
SKALA,1993.06.02.,755.0,5440.0,4035900.0,,13,735.0,735.0,755.0,HUF,741.8933823529412,
SKALA,1993.06.03.,770.0,2000.0,1531000.0,,7,745.0,745.0,770.0,HUF,765.5,
SKALA,1993.06.04.,770.0,2990.0,2304750.0,,5,770.0,770.0,775.0,HUF,770.819397993311,
SKALA,1993.06.07.,770.0,600.0,462000.0,,3,770.0,770.0,770.0,HUF,770.0,
SKALA,1993.06.10.,770.0,200.0,154000.0,,2,770.0,770.0,770.0,HUF,770.0,
SKALA,1993.06.11.,780.0,2790.0,2155050.0,,5,775.0,770.0,780.0,HUF,772.4193548387096,
SKALA,1993.06.14.,800.0,1100.0,878000.0,,2,780.0,780.0,800.0,HUF,798.1818181818181,
SKALA,1993.06.15.,800.0,7500.0,6000000.0,,6,800.0,800.0,800.0,HUF,800.0,
SKALA,1993.06.16.,825.0,2450.0,2005750.0,,6,810.0,810.0,825.0,HUF,818.6734693877551,
SKALA,1993.06.17.,830.0,600.0,493000.0,,2,820.0,820.0,830.0,HUF,821.6666666666666,
SKALA,1993.06.18.,840.0,3400.0,2836500.0,,5,835.0,830.0,840.0,HUF,834.2647058823529,
SKALA,1993.06.21.,825.0,100.0,82500.0,,2,825.0,825.0,825.0,HUF,825.0,
SKALA,1993.06.22.,825.0,1100.0,907000.0,,4,820.0,820.0,825.0,HUF,824.5454545454545,
SKALA,1993.06.23.,835.0,890.0,737000.0,,6,825.0,825.0,835.0,HUF,828.0898876404494,
SKALA,1993.06.24.,825.0,480.0,396500.0,,5,830.0,820.0,830.0,HUF,826.0416666666666,
SKALA,1993.06.25.,950.0,5450.0,4789400.0,,13,840.0,840.0,990.0,HUF,878.7889908256881,
SKALA,1993.06.28.,1170.0,1610.0,1688900.0,,7,960.0,960.0,1170.0,HUF,1049.0062111801242,
SKALA,1993.06.29.,1015.0,31610.0,3.320465E7,,7,1170.0,1015.0,1170.0,HUF,1050.4476431509015,
SKALA,1993.06.30.,1170.0,10150.0,1.140225E7,,28,1050.0,1015.0,1170.0,HUF,1123.3743842364531,
SKALA,1993.07.01.,1170.0,5620.0,6487250.0,,11,1150.0,1150.0,1170.0,HUF,1154.3149466192172,
SKALA,1993.07.02.,1150.0,6930.0,7988300.0,,6,1160.0,1150.0,1170.0,HUF,1152.7128427128428,
SKALA,1993.07.05.,1150.0,1890.0,2171050.0,,4,1150.0,1145.0,1160.0,HUF,1148.7037037037037,
SKALA,1993.07.06.,1140.0,10850.0,1.23744E7,,12,1140.0,1140.0,1145.0,HUF,1140.4976958525347,
SKALA,1993.07.08.,1165.0,10670.0,1.23617E7,,24,1130.0,1130.0,1170.0,HUF,1158.5473289597,
SKALA,1993.07.09.,1150.0,300.0,345000.0,,1,1150.0,1150.0,1150.0,HUF,1150.0,
SKALA,1993.07.12.,1140.0,5000.0,5700000.0,,1,1140.0,1140.0,1140.0,HUF,1140.0,
SKALA,1993.07.13.,1140.0,14640.0,1.6616E7,,15,1130.0,1120.0,1145.0,HUF,1134.9726775956285,
SKALA,1993.07.14.,1150.0,1100.0,1258000.0,,13,1140.0,1140.0,1150.0,HUF,1143.6363636363637,
SKALA,1993.07.15.,1165.0,13240.0,1.53508E7,,14,1145.0,1145.0,1170.0,HUF,1159.4259818731118,
SKALA,1993.07.16.,1300.0,20890.0,2.56151E7,,10,1185.0,1185.0,1300.0,HUF,1226.1895643848732,
SKALA,1993.07.19.,1400.0,6210.0,8617000.0,,8,1270.0,1270.0,1400.0,HUF,1387.6006441223833,
SKALA,1993.07.20.,1700.0,12990.0,2.1291E7,,10,1500.0,1500.0,1700.0,HUF,1639.0300230946882,
SKALA,1993.07.21.,1740.0,3680.0,6411500.0,,17,1745.0,1740.0,1750.0,HUF,1742.2554347826087,
SKALA,1993.07.22.,1650.0,26620.0,4.56266E7,,16,1750.0,1650.0,1765.0,HUF,1713.9969947407965,
SKALA,1993.07.23.,1700.0,20020.0,3.40327E7,,24,1670.0,1670.0,1710.0,HUF,1699.935064935065,
SKALA,1993.07.26.,1710.0,8370.0,1.423715E7,,16,1680.0,1680.0,1730.0,HUF,1700.973715651135,
SKALA,1993.07.27.,1750.0,2770.0,4792000.0,,8,1700.0,1700.0,1750.0,HUF,1729.9638989169675,
SKALA,1993.07.28.,2000.0,4060.0,7708550.0,,19,1800.0,1800.0,2000.0,HUF,1898.6576354679803,
SKALA,1993.07.29.,2080.0,3370.0,6901900.0,,8,2010.0,2010.0,2090.0,HUF,2048.041543026706,
SKALA,1993.07.30.,1980.0,4000.0,7920000.0,,4,1980.0,1980.0,1980.0,HUF,1980.0,
SKALA,1993.08.02.,1940.0,3000.0,5820000.0,,2,1940.0,1940.0,1940.0,HUF,1940.0,
SKALA,1993.08.03.,1985.0,3700.0,7041750.0,,13,1870.0,1860.0,1985.0,HUF,1903.1756756756756,
SKALA,1993.08.04.,2200.0,6990.0,1.48605E7,,14,2000.0,2000.0,2200.0,HUF,2125.9656652360513,
SKALA,1993.08.06.,2220.0,400.0,888000.0,,1,2220.0,2220.0,2220.0,HUF,2220.0,
SKALA,1993.08.09.,2425.0,3840.0,9098000.0,,6,2300.0,2300.0,2425.0,HUF,2369.2708333333335,
SKALA,1993.08.10.,2650.0,8590.0,2.22737E7,,6,2430.0,2430.0,2650.0,HUF,2592.9802095459836,
SKALA,1993.08.11.,2900.0,11410.0,3.3254E7,,6,2760.0,2760.0,3000.0,HUF,2914.4609991235757,
SKALA,1993.08.12.,2990.0,5990.0,1.77464E7,,7,2810.0,2810.0,3000.0,HUF,2962.671118530885,
SKALA,1993.08.13.,2900.0,2000.0,5800000.0,,3,2900.0,2900.0,2900.0,HUF,2900.0,
SKALA,1993.08.16.,2800.0,4340.0,1.2092E7,,7,2800.0,2750.0,2800.0,HUF,2786.1751152073734,
SKALA,1993.08.18.,2500.0,200.0,500000.0,,1,2500.0,2500.0,2500.0,HUF,2500.0,
SKALA,1993.08.24.,2450.0,5020.0,1.2549E7,,2,2500.0,2450.0,2500.0,HUF,2499.800796812749,
SKALA,1993.08.25.,2510.0,11000.0,2.755E7,,5,2500.0,2500.0,2530.0,HUF,2504.5454545454545,
SKALA,1993.08.26.,2500.0,3000.0,7500000.0,,1,2500.0,2500.0,2500.0,HUF,2500.0,
SKALA,1993.08.27.,2500.0,3060.0,7768000.0,,4,2600.0,2500.0,2600.0,HUF,2538.5620915032678,
SKALA,1993.08.31.,2500.0,140.0,343000.0,,4,2400.0,2400.0,2500.0,HUF,2450.0,
SKALA,1993.09.01.,2450.0,2880.0,7276000.0,,3,2450.0,2450.0,2560.0,HUF,2526.3888888888887,
SKALA,1993.09.02.,2500.0,1000.0,2500000.0,,1,2500.0,2500.0,2500.0,HUF,2500.0,
SKALA,1993.09.06.,2450.0,3000.0,7350000.0,,2,2450.0,2450.0,2450.0,HUF,2450.0,
SKALA,1993.09.07.,2360.0,3000.0,7080000.0,,2,2360.0,2360.0,2360.0,HUF,2360.0,
SKALA,1993.09.09.,2150.0,3700.0,7920000.0,,5,2200.0,2110.0,2200.0,HUF,2140.5405405405404,
SKALA,1993.09.10.,2100.0,4500.0,9480000.0,,3,2120.0,2100.0,2120.0,HUF,2106.6666666666665,
SKALA,1993.09.13.,2150.0,550.0,1192500.0,,2,2170.0,2150.0,2170.0,HUF,2168.181818181818,
SKALA,1993.09.14.,2395.0,3030.0,7444350.0,,3,2470.0,2395.0,2470.0,HUF,2456.8811881188117,
SKALA,1993.09.15.,2400.0,1580.0,3784600.0,,6,2395.0,2395.0,2400.0,HUF,2395.3164556962024,
SKALA,1993.09.16.,2365.0,10.0,23650.0,,1,2365.0,2365.0,2365.0,HUF,2365.0,
SKALA,1993.09.17.,2400.0,80.0,192000.0,,1,2400.0,2400.0,2400.0,HUF,2400.0,
SKALA,1993.09.20.,2470.0,1290.0,3164550.0,,2,2395.0,2395.0,2470.0,HUF,2453.139534883721,
SKALA,1993.09.21.,2450.0,5000.0,1.2248E7,,4,2450.0,2430.0,2450.0,HUF,2449.6,
SKALA,1993.09.22.,2450.0,4040.0,9839200.0,,8,2450.0,2430.0,2450.0,HUF,2435.4455445544554,
SKALA,1993.09.23.,2510.0,2430.0,6109300.0,,3,2515.0,2510.0,2515.0,HUF,2514.1152263374483,
SKALA,1993.09.24.,2600.0,3230.0,8330500.0,,5,2540.0,2540.0,2600.0,HUF,2579.1021671826625,
SKALA,1993.09.27.,2660.0,770.0,2032400.0,,10,2580.0,2580.0,2660.0,HUF,2639.4805194805194,
SKALA,1993.09.28.,2750.0,2330.0,6457300.0,,6,2730.0,2730.0,2775.0,HUF,2771.3733905579397,
SKALA,1993.09.29.,2835.0,970.0,2727400.0,,11,2790.0,2790.0,2840.0,HUF,2811.7525773195875,
SKALA,1993.09.30.,2890.0,630.0,1809500.0,,6,2800.0,2800.0,2890.0,HUF,2872.222222222222,
SKALA,1993.10.01.,2900.0,1040.0,3016000.0,,2,2900.0,2900.0,2900.0,HUF,2900.0,
SKALA,1993.10.04.,2895.0,1000.0,2889050.0,,4,2870.0,2870.0,2895.0,HUF,2889.05,
SKALA,1993.10.05.,2895.0,3390.0,9812000.0,,6,2900.0,2890.0,2900.0,HUF,2894.395280235988,
SKALA,1993.10.06.,2950.0,100.0,295000.0,,1,2950.0,2950.0,2950.0,HUF,2950.0,
SKALA,1993.10.07.,3000.0,400.0,1199000.0,,4,2990.0,2990.0,3000.0,HUF,2997.5,
SKALA,1993.10.15.,2550.0,30.0,73500.0,,2,2400.0,2400.0,2550.0,HUF,2450.0,
SKALA,1993.10.18.,2500.0,5070.0,1.26745E7,,7,2450.0,2450.0,2500.0,HUF,2499.9013806706116,
SKALA,1993.10.19.,2500.0,7000.0,1.74965E7,,5,2500.0,2495.0,2500.0,HUF,2499.5,
SKALA,1993.10.20.,2450.0,5510.0,1.3563E7,,11,2480.0,2445.0,2480.0,HUF,2461.524500907441,
SKALA,1993.10.21.,2200.0,13950.0,3.02734E7,,22,2470.0,2000.0,2470.0,HUF,2170.136200716846,
SKALA,1993.10.22.,2300.0,2690.0,6133800.0,,8,2205.0,2205.0,2300.0,HUF,2280.2230483271373,
SKALA,1993.10.25.,2415.0,14520.0,3.46882E7,,62,2290.0,2290.0,2420.0,HUF,2388.9944903581268,
SKALA,1993.10.26.,2490.0,16040.0,3.962745E7,,33,2450.0,2450.0,2490.0,HUF,2470.53927680798,
SKALA,1993.10.27.,2520.0,4400.0,1.114375E7,,27,2495.0,2495.0,2550.0,HUF,2532.6704545454545,
SKALA,1993.10.28.,2465.0,12760.0,3.172485E7,,39,2540.0,2465.0,2545.0,HUF,2486.273510971787,
SKALA,1993.10.29.,2450.0,4350.0,1.064085E7,,22,2510.0,2430.0,2510.0,HUF,2446.1724137931033,
SKALA,1993.11.01.,2420.0,610.0,1482800.0,,7,2450.0,2410.0,2450.0,HUF,2430.8196721311474,
SKALA,1993.11.02.,2415.0,18320.0,4.357645E7,,30,2350.0,2350.0,2435.0,HUF,2378.6271834061135,
SKALA,1993.11.03.,2460.0,8550.0,2.09405E7,,13,2420.0,2420.0,2460.0,HUF,2449.1812865497077,
SKALA,1993.11.04.,2490.0,3720.0,9214700.0,,7,2460.0,2455.0,2490.0,HUF,2477.069892473118,
SKALA,1993.11.05.,2450.0,2020.0,4948000.0,,5,2400.0,2400.0,2450.0,HUF,2449.5049504950493,
SKALA,1993.11.08.,2480.0,2000.0,4960000.0,,1,2480.0,2480.0,2480.0,HUF,2480.0,
SKALA,1993.11.09.,2450.0,1640.0,4023000.0,,6,2450.0,2450.0,2475.0,HUF,2453.048780487805,
SKALA,1993.11.10.,2450.0,4500.0,1.1045E7,,5,2460.0,2450.0,2460.0,HUF,2454.4444444444443,
SKALA,1993.11.11.,2470.0,6970.0,1.70779E7,,18,2445.0,2440.0,2470.0,HUF,2450.2008608321376,
SKALA,1993.11.12.,2485.0,4680.0,1.162615E7,,9,2480.0,2480.0,2485.0,HUF,2484.2200854700855,
SKALA,1993.11.15.,2480.0,1150.0,2849600.0,,9,2470.0,2470.0,2485.0,HUF,2477.913043478261,
SKALA,1993.11.16.,2465.0,4100.0,1.01865E7,,2,2485.0,2465.0,2485.0,HUF,2484.512195121951,
SKALA,1993.11.18.,2450.0,5640.0,1.38384E7,,4,2470.0,2450.0,2470.0,HUF,2453.6170212765956,
SKALA,1993.11.19.,2450.0,1450.0,3554800.0,,4,2460.0,2450.0,2460.0,HUF,2451.5862068965516,
SKALA,1993.11.22.,2455.0,3050.0,7468150.0,,12,2450.0,2440.0,2455.0,HUF,2448.5737704918033,
SKALA,1993.11.23.,2460.0,2250.0,5522750.0,,11,2450.0,2450.0,2460.0,HUF,2454.5555555555557,
SKALA,1993.11.24.,2450.0,3150.0,7732600.0,,7,2450.0,2450.0,2455.0,HUF,2454.7936507936506,
SKALA,1993.11.26.,2400.0,4260.0,1.0224E7,,7,2400.0,2400.0,2400.0,HUF,2400.0,
SKALA,1993.11.29.,2400.0,5330.0,1.2792E7,,8,2400.0,2400.0,2400.0,HUF,2400.0,
SKALA,1993.12.02.,2280.0,2200.0,5009000.0,,3,2275.0,2270.0,2280.0,HUF,2276.818181818182,
SKALA,1993.12.03.,2280.0,2100.0,4785000.0,,3,2300.0,2275.0,2300.0,HUF,2278.5714285714284,
SKALA,1993.12.06.,2210.0,5000.0,1.105E7,,1,2210.0,2210.0,2210.0,HUF,2210.0,
SKALA,1993.12.08.,2210.0,2000.0,4420000.0,,1,2210.0,2210.0,2210.0,HUF,2210.0,
SKALA,1993.12.09.,2185.0,200.0,435500.0,,2,2170.0,2170.0,2185.0,HUF,2177.5,
SKALA,1993.12.10.,2215.0,100.0,221500.0,,1,2215.0,2215.0,2215.0,HUF,2215.0,
SKALA,1993.12.13.,2210.0,3000.0,6630000.0,,2,2210.0,2210.0,2210.0,HUF,2210.0,
SKALA,1993.12.14.,2210.0,2500.0,5525000.0,,5,2210.0,2210.0,2210.0,HUF,2210.0,
SKALA,1993.12.15.,2160.0,2000.0,4320000.0,,2,2160.0,2160.0,2160.0,HUF,2160.0,
SKALA,1993.12.22.,2100.0,2300.0,4850300.0,,6,2100.0,2100.0,2120.0,HUF,2108.8260869565215,
SKALA,1993.12.23.,2120.0,4480.0,9513100.0,,7,2100.0,2100.0,2150.0,HUF,2123.4598214285716,
SKALA,1993.12.27.,2140.0,6070.0,1.29877E7,,7,2140.0,2110.0,2140.0,HUF,2139.6540362438222,
SKALA,1993.12.29.,2140.0,2080.0,4471200.0,,3,2150.0,2140.0,2150.0,HUF,2149.6153846153848,
SKALA,1993.12.30.,2170.0,7100.0,1.5255E7,,6,2150.0,2140.0,2170.0,HUF,2148.5915492957747,
SKALA,1993.12.31.,2140.0,7640.0,1.63165E7,,11,2140.0,2100.0,2145.0,HUF,2135.667539267016,
STYL,1993.02.01.,5550.0,50.0,277500.0,,1,5550.0,5550.0,5550.0,HUF,5550.0,
STYL,1993.02.08.,5550.0,10.0,55500.0,,1,5550.0,5550.0,5550.0,HUF,5550.0,
STYL,1993.02.09.,5550.0,10.0,55500.0,,2,5550.0,5550.0,5550.0,HUF,5550.0,
STYL,1993.02.11.,5550.0,40.0,222000.0,,3,5550.0,5550.0,5550.0,HUF,5550.0,
STYL,1993.02.15.,5600.0,50.0,280000.0,,1,5600.0,5600.0,5600.0,HUF,5600.0,
STYL,1993.02.16.,5600.0,100.0,560000.0,,2,5600.0,5600.0,5600.0,HUF,5600.0,
STYL,1993.02.17.,5600.0,10.0,56000.0,,1,5600.0,5600.0,5600.0,HUF,5600.0,
STYL,1993.02.18.,5610.0,10.0,56100.0,,1,5610.0,5610.0,5610.0,HUF,5610.0,
STYL,1993.02.23.,5650.0,100.0,565000.0,,1,5650.0,5650.0,5650.0,HUF,5650.0,
STYL,1993.02.24.,5650.0,80.0,452000.0,,3,5650.0,5650.0,5650.0,HUF,5650.0,
STYL,1993.02.25.,5650.0,10.0,56500.0,,2,5650.0,5650.0,5650.0,HUF,5650.0,
STYL,1993.02.26.,5680.0,200.0,1136000.0,,1,5680.0,5680.0,5680.0,HUF,5680.0,
STYL,1993.03.02.,5690.0,110.0,625900.0,,2,5690.0,5690.0,5690.0,HUF,5690.0,
STYL,1993.03.03.,5690.0,50.0,284500.0,,1,5690.0,5690.0,5690.0,HUF,5690.0,
STYL,1993.03.11.,5650.0,9.0,50850.0,,2,5650.0,5650.0,5650.0,HUF,5650.0,
STYL,1993.03.12.,5700.0,100.0,570000.0,,1,5700.0,5700.0,5700.0,HUF,5700.0,
STYL,1993.03.17.,5700.0,100.0,570000.0,,1,5700.0,5700.0,5700.0,HUF,5700.0,
STYL,1993.03.18.,5700.0,70.0,399000.0,,1,5700.0,5700.0,5700.0,HUF,5700.0,
STYL,1993.03.23.,5700.0,50.0,285000.0,,1,5700.0,5700.0,5700.0,HUF,5700.0,
STYL,1993.04.27.,5750.0,10.0,57500.0,,1,5750.0,5750.0,5750.0,HUF,5750.0,
STYL,1993.07.14.,5450.0,200.0,1090000.0,,1,5450.0,5450.0,5450.0,HUF,5450.0,
STYL,1993.08.06.,5350.0,10.0,53500.0,,1,5350.0,5350.0,5350.0,HUF,5350.0,
STYL,1993.08.25.,5150.0,500.0,2620000.0,,2,5250.0,5150.0,5250.0,HUF,5240.0,
STYL,1993.08.30.,5150.0,200.0,1030000.0,,1,5150.0,5150.0,5150.0,HUF,5150.0,
STYL,1993.09.10.,5280.0,10.0,52800.0,,1,5280.0,5280.0,5280.0,HUF,5280.0,
STYL,1993.09.14.,5400.0,50.0,270000.0,,1,5400.0,5400.0,5400.0,HUF,5400.0,
STYL,1993.09.15.,5350.0,20.0,107000.0,,1,5350.0,5350.0,5350.0,HUF,5350.0,
STYL,1993.09.23.,5450.0,70.0,382500.0,,2,5500.0,5450.0,5500.0,HUF,5464.285714285715,
STYL,1993.09.29.,5425.0,70.0,379750.0,,1,5425.0,5425.0,5425.0,HUF,5425.0,
STYL,1993.10.01.,4000.0,40.0,160000.0,,2,4000.0,4000.0,4000.0,HUF,4000.0,
STYL,1993.10.05.,3000.0,10.0,30000.0,,1,3000.0,3000.0,3000.0,HUF,3000.0,
STYL,1993.10.06.,2990.0,80.0,239200.0,,3,2990.0,2990.0,2990.0,HUF,2990.0,
STYL,1993.10.14.,2880.0,150.0,430750.0,,2,2855.0,2855.0,2880.0,HUF,2871.6666666666665,
STYL,1993.10.15.,2850.0,180.0,512400.0,,6,2830.0,2830.0,2850.0,HUF,2846.6666666666665,
STYL,1993.10.18.,2850.0,70.0,198600.0,,2,2805.0,2805.0,2850.0,HUF,2837.1428571428573,
STYL,1993.10.20.,2750.0,60.0,165300.0,,4,2780.0,2750.0,2780.0,HUF,2755.0,
STYL,1993.10.21.,2745.0,10.0,27450.0,,1,2745.0,2745.0,2745.0,HUF,2745.0,
STYL,1993.10.26.,2700.0,30.0,81000.0,,1,2700.0,2700.0,2700.0,HUF,2700.0,
STYL,1993.10.28.,2700.0,40.0,108000.0,,2,2700.0,2700.0,2700.0,HUF,2700.0,
STYL,1993.10.29.,2630.0,10.0,26300.0,,1,2630.0,2630.0,2630.0,HUF,2630.0,
STYL,1993.11.02.,2605.0,30.0,78150.0,,1,2605.0,2605.0,2605.0,HUF,2605.0,
STYL,1993.11.03.,2550.0,2000.0,5100000.0,,1,2550.0,2550.0,2550.0,HUF,2550.0,
STYL,1993.11.04.,2570.0,690.0,1765500.0,,5,2550.0,2550.0,2570.0,HUF,2558.695652173913,
STYL,1993.11.05.,2750.0,530.0,1456400.0,,3,2720.0,2700.0,2750.0,HUF,2747.9245283018868,
STYL,1993.11.08.,2850.0,230.0,645500.0,,5,2800.0,2800.0,2850.0,HUF,2806.521739130435,
STYL,1993.11.09.,2840.0,120.0,341500.0,,4,2850.0,2840.0,2850.0,HUF,2845.8333333333335,
STYL,1993.11.10.,2800.0,360.0,1008000.0,,7,2800.0,2800.0,2800.0,HUF,2800.0,
STYL,1993.11.11.,2800.0,100.0,280000.0,,1,2800.0,2800.0,2800.0,HUF,2800.0,
STYL,1993.11.12.,2790.0,90.0,251100.0,,2,2790.0,2790.0,2790.0,HUF,2790.0,
STYL,1993.11.15.,2800.0,20.0,56000.0,,1,2800.0,2800.0,2800.0,HUF,2800.0,
STYL,1993.11.16.,2890.0,10.0,28900.0,,1,2890.0,2890.0,2890.0,HUF,2890.0,
STYL,1993.11.17.,2850.0,20.0,57000.0,,1,2850.0,2850.0,2850.0,HUF,2850.0,
STYL,1993.11.23.,2750.0,40.0,110000.0,,1,2750.0,2750.0,2750.0,HUF,2750.0,
STYL,1993.11.25.,2710.0,30.0,81300.0,,1,2710.0,2710.0,2710.0,HUF,2710.0,
STYL,1993.11.26.,2700.0,40.0,108000.0,,1,2700.0,2700.0,2700.0,HUF,2700.0,
STYL,1993.12.02.,2700.0,30.0,81000.0,,1,2700.0,2700.0,2700.0,HUF,2700.0,
STYL,1993.12.07.,2710.0,20.0,54200.0,,1,2710.0,2710.0,2710.0,HUF,2710.0,
STYL,1993.12.08.,2710.0,10.0,27100.0,,1,2710.0,2710.0,2710.0,HUF,2710.0,
STYL,1993.12.10.,2700.0,20.0,54000.0,,1,2700.0,2700.0,2700.0,HUF,2700.0,
STYL,1993.12.13.,2800.0,100.0,279700.0,,2,2790.0,2790.0,2800.0,HUF,2797.0,
STYL,1993.12.14.,2700.0,90.0,242500.0,,2,2650.0,2650.0,2700.0,HUF,2694.4444444444443,
STYL,1993.12.17.,2700.0,500.0,1350000.0,,1,2700.0,2700.0,2700.0,HUF,2700.0,
STYL,1993.12.31.,2850.0,1250.0,3613000.0,,11,2800.0,2800.0,2900.0,HUF,2890.4,
